<?xml version="1.0" encoding="utf-8"?>
<!-- Generator: Adobe Illustrator 22.1.0, SVG Export Plug-In . SVG Version: 6.00 Build 0)  -->
<svg version="1.1" id="Слой_1" xmlns="http://www.w3.org/2000/svg" xmlns:xlink="http://www.w3.org/1999/xlink" x="0px" y="0px"
	 viewBox="0 0 238 215" style="enable-background:new 0 0 238 215;" xml:space="preserve">
<style type="text/css">
	.st0{fill:#E2DB6F;}
	.st1{opacity:0.3;}
	.st2{fill:none;stroke:#0C0C0C;stroke-miterlimit:10;}
	.st3{fill:#0C0C0C;}
	.st4{fill:#E0CFBE;}
	.st5{fill:#A8801D;}
	.st6{fill:#C2C2C2;}
	.st7{fill:#5D5D5D;}
	.st8{fill:none;stroke:#5D5D5D;stroke-miterlimit:10;}
	.st9{fill:none;stroke:#000000;stroke-miterlimit:10;}
	.st10{fill:#9B9B9B;}
	.st11{fill:#201600;}
	.st12{fill:#070707;}
	.st13{fill:url(#SVGID_21_);}
	.st14{fill:none;stroke:#2A2927;stroke-miterlimit:10;}
	.st15{fill:#2A2927;}
	.st16{opacity:0.74;}
	.st17{fill:none;stroke:#E35B22;stroke-miterlimit:10;}
	.st18{stroke:#D5D5D5;stroke-width:0.5;stroke-miterlimit:10;}
	.st19{opacity:0.79;clip-path:url(#SVGID_53_);}
	.st20{clip-path:url(#SVGID_55_);}
	.st21{opacity:0.87;}
	.st22{opacity:0.5;}
	.st23{clip-path:url(#SVGID_61_);}
	.st24{opacity:0.97;clip-path:url(#SVGID_69_);}
	.st25{opacity:0.97;clip-path:url(#SVGID_71_);}
	.st26{clip-path:url(#SVGID_73_);}
	.st27{clip-path:url(#SVGID_75_);}
	.st28{opacity:0.97;clip-path:url(#SVGID_81_);}
	.st29{clip-path:url(#SVGID_83_);}
	.st30{clip-path:url(#SVGID_85_);}
	.st31{clip-path:url(#SVGID_87_);}
	.st32{clip-path:url(#SVGID_99_);}
	.st33{opacity:0.97;clip-path:url(#SVGID_107_);}
	.st34{clip-path:url(#SVGID_109_);}
	.st35{clip-path:url(#SVGID_111_);}
	.st36{clip-path:url(#SVGID_113_);}
	.st37{fill:#E8E8E8;}
	.st38{fill:#FF0000;}
	.st39{fill:none;stroke:#FFFFFF;stroke-miterlimit:10;}
	.st40{fill:#D8D8D8;}
	.st41{fill:none;stroke:#0C0C0C;stroke-linecap:round;stroke-miterlimit:10;}
	.st42{clip-path:url(#SVGID_129_);}
	.st43{opacity:0.97;clip-path:url(#SVGID_137_);}
	.st44{clip-path:url(#SVGID_139_);}
	.st45{clip-path:url(#SVGID_141_);}
	.st46{clip-path:url(#SVGID_143_);}
	.st47{clip-path:url(#SVGID_155_);}
	.st48{opacity:0.97;clip-path:url(#SVGID_163_);}
	.st49{clip-path:url(#SVGID_165_);}
	.st50{clip-path:url(#SVGID_167_);}
	.st51{clip-path:url(#SVGID_169_);}
	.st52{fill:#FFFFFF;}
	.st53{filter:url(#Adobe_OpacityMaskFilter);}
	.st54{opacity:0.11;mask:url(#SVGID_176_);}
	.st55{opacity:0.71;}
	.st56{filter:url(#Adobe_OpacityMaskFilter_1_);}
	.st57{opacity:0.11;mask:url(#SVGID_177_);}
	.st58{filter:url(#Adobe_OpacityMaskFilter_2_);}
	.st59{opacity:0.11;mask:url(#SVGID_178_);}
	.st60{filter:url(#Adobe_OpacityMaskFilter_3_);}
	.st61{opacity:0.11;mask:url(#SVGID_179_);}
	.st62{opacity:0.56;}
	.st63{fill:none;stroke:#000000;stroke-width:2;stroke-miterlimit:10;}
	.st64{opacity:0.3;fill:none;stroke:#000000;stroke-miterlimit:10;}
	.st65{fill:none;stroke:#DDDDDD;stroke-miterlimit:10;}
	.st66{fill:none;}
	.st67{opacity:0.3;fill:none;stroke:#5D5D5D;stroke-miterlimit:10;}
	.st68{opacity:0.7;}
	.st69{fill:none;stroke:#E2DB6F;stroke-miterlimit:10;stroke-dasharray:11.9153,11.9153;}
	.st70{fill:#E7DD6B;}
	.st71{fill:#C73D3D;}
	.st72{clip-path:url(#SVGID_189_);}
	.st73{clip-path:url(#SVGID_191_);}
</style>
<g>
	<path class="st70" d="M131.5,107.7c41.6,0,80.1-10.3,80.1,9.4c0,10.3-19.6,45-80.1,39.2c-69.3-6.6-75.4-10.9-75.4-24.3
		C56.1,115.5,100,107.7,131.5,107.7z"/>
	<g>
		<g>
			<path class="st70" d="M92.2,39.1c0.3,0,0.5,0.1,0.8,0.1c1.1,0.2,2.2,0.4,3.3,0.7c1.1,0.3,2.1,0.8,3.2,0.7c0-0.7,0-1.3,0-1.9
				c0-0.3,0-0.6,0-0.9c0.1-1.2,0.2-2.4,0.7-3.5c0.3-0.7,0.5-1.4,0.9-2c0.7-1.2,1.4-2.4,2.2-3.5c1-1.4,2.2-2.4,3.5-3.4
				c1.5-1.2,3-2.2,4.8-3c1.6-0.7,3.2-1.3,4.8-1.8c2.1-0.6,4.1-1.4,6.3-1.5c0.5,0,1.1-0.2,1.6-0.4c0.3,0,0.5,0,0.8,0
				c0.3,0,0.6-0.1,0.9-0.1c1.8,0,3.5-0.1,5.3,0c1.1,0,2.3,0,3.4,0.2c1.6,0.2,3.2,0.7,4.8,0.9c2.4,0.4,4.7,1.2,7,1.9
				c0.6,0.2,1.1,0.5,1.6,0.7c0.5,0.2,0.9,0,1.3-0.4c0.5-0.6,1-1.3,1.7-1.7c2.1-1.4,4.4-2.4,7.1-2.8c1.9-0.2,3.8-0.3,5.7-0.3
				c1.9,0,3.8,0.6,5.6,1.1c1.7,0.5,3.3,1.2,4.9,1.9c1.3,0.6,2.7,1.1,4,1.9c1.8,1.1,3.8,2,5.4,3.4c0.8,0.7,1.8,1.2,2.5,2
				c1.8,1.8,3.7,3.6,5.4,5.5c1.1,1.2,2.1,2.6,3.1,4c0.8,1,1.5,2.1,2.2,3.2c0.3,0.4,0.6,0.9,0.8,1.3c0.5,1.1,1.3,2.1,1.5,3.3
				c0,0,0,0.1,0.1,0.1c0.5,1.3,1.2,2.5,1.6,3.8c0.3,1,0.5,2.1,0.8,3.1c0.3,0.9,0.7,1.8,0.4,2.8c-0.1,0.3,0,0.7,0.1,1
				c0.1,0.2,0.4,0.4,0.5,0.4c0.6-0.1,1.2,0,1.8-0.3c0.3,0,0.7,0.1,1,0.1c0.5,0,1-0.1,1.6-0.1c0.1,0,0.3,0,0.4,0
				c0.4,0,0.8,0.1,1.2,0.1c1.7,0.2,3.3,0.7,4.8,1.4c1.5,0.7,3,1.2,4.2,2.3c0.4,0.4,1,0.7,1.4,1.1c1.5,1.3,2.7,2.7,3.5,4.5
				c0.4,1,0.9,1.9,1.3,2.9c0.1,0.2,0.2,0.4,0.2,0.6c0.2,1.2,0.3,2.3,0.2,3.6c0,0.9-0.3,1.7-0.7,2.5c-0.4,0.8-0.9,1.2-1.8,1.4
				c-1,0.2-1.6-0.2-2.2-0.9c-0.5-0.7-0.3-1.4,0.2-2.1c0.8,0.2,1.3-0.2,1.7-0.8c0-0.1,0-0.2,0.1-0.2c0.2-1.5,0.4-3-0.6-4.3
				c0,0-0.1-0.1-0.1-0.2c-0.4-1.4-0.9-2.7-1.9-3.9c-0.7-0.8-1.3-1.6-2.2-2.2c-0.8-0.5-1.4-1.1-2.2-1.5c-0.6-0.4-1.3-0.6-2-0.8
				c-0.3-0.1-0.6-0.3-1-0.4c-1.1-0.2-2.1-0.4-3.2-0.5c-0.6-0.1-1.2-0.1-1.7,0c-0.9,0.2-1.9,0-2.8,0.4c0,0-0.1,0-0.2,0
				c-0.5-0.2-0.8,0-1.1,0.3c-0.9,0.9-2.3,0.6-2.9-0.5c-0.1-0.1-0.2-0.3-0.1-0.3c0.5-1.3-0.2-2.6-0.3-3.8c-0.1-1.7-0.7-3.3-1-4.9
				c-0.3-1.6-1-3.2-1.7-4.8c-0.9-1.8-1.9-3.5-2.9-5.3c-0.3-0.6-0.6-1.2-1-1.6c-0.9-0.9-1.6-1.9-2.4-2.9c-1.2-1.4-2.4-2.6-3.6-3.9
				c-1.2-1.3-2.7-2.4-4.1-3.5c-0.7-0.6-1.5-1.1-2.3-1.6c-0.7-0.5-1.5-1-2.3-1.4c-0.8-0.4-1.6-0.8-2.4-1.1c-1.3-0.6-2.7-1.2-4-1.7
				c-0.7-0.3-1.5-0.4-2.1-0.8c-0.2-0.1-0.4,0-0.6-0.1c-0.3-0.1-0.7,0-1-0.2c-1-0.5-2.1-0.2-3.1-0.7c-0.3-0.1-0.7,0.1-1,0
				c-1.2-0.3-2.5,0-3.7,0.1c-0.8,0-1.7,0.2-2.5,0.3c-0.2,0-0.5,0-0.6,0.1c-0.9,1-2.4,0.8-3.3,1.8c-0.5,0.5-1.2,0.7-1.6,1.2
				c-0.4,0.4-0.8,0.8-0.9,1.5c-0.1,0.6-0.7,0.9-1.3,0.7c-1.3-0.4-2.5-1-3.8-1.4c-1.9-0.6-3.7-1.2-5.6-1.6c-1.2-0.2-2.3-0.7-3.5-0.8
				c-0.9-0.1-1.7-0.4-2.6-0.4c-1.2-0.1-2.4-0.3-3.6-0.3c-1,0-2-0.2-3,0.3c-0.1,0.1-0.4,0.1-0.5,0c-0.4-0.3-0.9-0.2-1.3-0.1
				c-0.7,0.3-1.6-0.1-2.3,0.5c-0.1,0.1-0.4-0.1-0.6-0.1c-0.3,0-0.7,0-1,0.1c-0.2,0-0.3,0.1-0.4,0.2c-1.7,0.4-3.5,0.7-5.2,1.1
				c-0.6,0.1-1.1,0.5-1.6,0.8c-1.5,0.8-3.1,1.2-4.5,2.4c-0.9,0.7-1.9,1.2-2.8,2c-0.7,0.7-1.2,1.7-2.2,2.1c-0.4,0.8-1.2,1.4-1.5,2.3
				c0,0.1-0.1,0.2-0.2,0.3c-0.3,0.4-0.6,0.8-0.7,1.3c-0.3,0.8-0.6,1.6-0.6,2.5c0,0.6,0,1.3-0.3,1.7c-0.5,0.7,0,1.1,0,1.7
				c0,0.1,0,0.1,0,0.2c0,0.2,0.1,0.4,0.1,0.6c0.1,0.6,0.3,1.1,1,1.4c0.6,0.2,1.1,0.7,1.7,1c0.7,0.4,1.1,1,1.4,1.7
				c0.4,0.7,0,1.5-0.8,1.7c-0.9,0.2-1.9,0.1-2.7-0.4c-0.7-0.4-1.3-0.9-1.9-1.5c-0.2-0.2-0.3-0.5-0.5-0.8c-0.2-0.3-0.3-0.7-0.5-0.9
				c-0.8-0.4-1.6-0.6-2.4-0.8c-0.9-0.2-1.8-0.2-2.7-0.6c-0.5-0.2-1-0.2-1.5-0.3c-0.2,0-0.4,0-0.6,0c-0.8-0.1-1.6-0.2-2.5-0.3
				c-1.3-0.1-2.7-0.3-4-0.4c-0.3,0-0.7,0-1,0c-0.2,0-0.4-0.1-0.7-0.1c-1.5-0.1-3,0.2-4.4,0c-0.1,0-0.2,0-0.3,0
				c-1.6,0.1-3.2,0.3-4.8,0.4c-0.9,0.1-1.9,0.2-2.8,0.4c-1.4,0.3-2.9,0.1-4.2,0.8c-0.1,0-0.1,0-0.2,0c-0.6-0.2-1,0-1.5,0.2
				c-0.5,0.2-1.2,0.2-1.7,0.4c-0.5,0.2-1.1,0.2-1.6,0.4c-0.9,0.3-1.7,0.6-2.7,0.8c-1.4,0.3-2.7,0.8-4.1,1.2
				c-1.3,0.3-2.4,1.1-3.6,1.5c-0.7,0.3-1.4,0.6-2.1,0.9c-0.9,0.4-1.8,0.8-2.7,1.3c-1.4,0.8-2.6,1.7-4,2.5c-0.5,0.3-1.1,0.6-1.5,1
				c-0.8,0.8-2,1.1-2.6,2.1c-0.7,0.1-1,0.7-1.5,1.2c-0.6,0.7-1.4,1.4-2.2,2c-0.8,0.6-1.3,1.3-1.9,2.1c-0.3,0.4-0.7,0.7-1,1.1
				c-0.6,0.8-1.4,1.4-1.9,2.3c-0.6,1.1-1.6,2-2.1,3.2c0,0.1-0.1,0.1-0.1,0.1c-0.3,0.6-0.7,1.1-1,1.7c-0.5,1-0.9,1.9-1.3,2.9
				c-0.2,0.4-0.4,0.7-0.6,1.1c-0.3,0.8-0.4,1.7-0.8,2.3c-0.7,0.9-0.4,2.2-1.1,3.1c0,1.8-0.6,3.5-0.7,5.3c-0.1,1.4-0.1,2.8-0.1,4.1
				c0,1,0,2.1,0.1,3.1c0,0.2,0.1,0.3,0.1,0.5c0.1,0.4,0.1,0.8,0.2,1.1c0.2,1.2,0.3,2.5,0.7,3.7c0.5,1.4,1,2.8,2,4
				c0.3,0.3,0.4,0.8,0.7,1.1c0.5,0.6,1,1.2,1.5,1.9c0.4,0.5,0.9,0.8,0.9,1.6c-0.5,0.7-1.3,0.6-1.9,0.4c-1.3-0.3-2.5-0.8-3.8-1.2
				c-1.8-0.5-3.6-0.9-5.5-0.6c-0.3,0-0.5,0.1-0.8,0.1c-2.2,0-4.1,0.8-5.8,2.1c-2.1,1.6-3.1,3.8-3,6.5c0.1,1.2,0.4,2.3,0.6,3.4
				c0.1,0.4,0.2,0.8,0.4,1.1c0.7,1.3,1.3,2.6,2.4,3.7c1.3,1.3,2.5,2.7,3.8,4c0.5,0.4,1.1,0.7,1.6,1.1c0.7,0.5,1.5,1.1,2.2,1.6
				c0.9,0.6,1.8,1,2.7,1.6c1.6,0.9,3.3,1.4,5.1,1c0.5-0.1,1-0.1,1.5-0.2c0,0.3-0.1,0.5-0.3,0.6c-0.7,0.6-1.5,0.7-2.4,1
				c-0.6,0-1.2,0-1.7,0c0,0-0.1-0.1-0.1-0.1c-2.3-0.5-4.3-1.6-6.2-2.8c-0.7-0.5-1.3-1-2-1.5c-0.9-0.7-1.8-1.4-2.7-2.1
				c-0.8-0.7-1.5-1.6-2.3-2.3c-1.2-1-1.9-2.4-2.7-3.8c-0.5-0.9-0.9-1.8-1.2-2.8c-0.2-0.8-0.5-1.7-0.5-2.5c0-0.4-0.1-0.8-0.1-1.2
				c0-0.5-0.2-1.1,0-1.6c0.4-1.2,0.6-2.6,1.5-3.6c0.6-0.7,1.2-1.5,2-2.1c1.6-1.3,3.5-2,5.5-2.4c0.6-0.1,1.2-0.1,1.8-0.1
				c1.9-0.2,3.7-0.1,5.5,0.3c0.6,0.2,1.3,0.3,2.1,0.4c-0.5-1-0.9-1.9-1.5-2.7c-0.6-0.9-1-1.8-1.3-2.8c-0.1-0.6-0.4-1.1-0.5-1.6
				c-0.3-1.3-0.6-2.5-0.8-3.8c0-0.1,0-0.3,0-0.4c0-0.4-0.1-0.8-0.1-1.2c0-0.1,0-0.3,0.1-0.4c-0.1-0.3-0.1-0.7-0.2-1
				c0.1-0.1,0.1-0.3,0.2-0.4c-0.1-1.6-0.3-3.2,0-4.8c0-0.1,0-0.2-0.1-0.3c0-0.3,0-0.7,0.1-1c0-0.3,0-0.7,0.1-1
				c0.5-1.7,0.9-3.5,1.4-5.2c0.6-1.9,1.4-3.8,2.1-5.7c0.4-0.9,0.8-1.8,1.3-2.7c0.5-0.9,1.1-1.8,1.7-2.7c0.8-1.2,1.5-2.4,2.4-3.5
				c1.1-1.4,2.3-2.7,3.4-4c0.8-0.9,1.7-1.8,2.6-2.6c0.9-0.8,1.8-1.5,2.8-2.3c0.7-0.6,1.4-1.2,2.2-1.7c1.6-1,3.2-1.8,4.8-2.8
				c1.7-1.1,3.6-1.9,5.4-2.7c1.5-0.7,3.1-1.1,4.6-1.8c1.9-0.8,3.9-1.4,5.9-1.8c2.9-0.7,5.9-1.2,8.8-1.8c0.2,0,0.4,0,0.6,0
				c2.5-0.3,5.1-0.6,7.6-0.5c0.5,0,1.1-0.2,1.6-0.2c1,0,2,0.1,3,0.1c0.8,0,1.6,0.2,2.4,0.1c1.2-0.1,2.4,0.1,3.6,0.2
				C90.7,38.9,91.4,39,92.2,39.1z M25.7,101.6C25.7,101.6,25.7,101.6,25.7,101.6c-0.1-0.1-0.1,0-0.1,0
				C25.6,101.7,25.7,101.7,25.7,101.6C25.7,101.7,25.7,101.7,25.7,101.6z"/>
			<path class="st70" d="M167.1,39.1c-0.1,0-0.1,0-0.2,0c-1.1-0.4-2.3-0.4-3.4-1.3c0.3-0.2,0.5-0.3,0.7-0.4c0.6-0.1,1.2-0.2,1.7-0.2
				c1.4-0.1,2.8,0.2,4.2,0.3c1.9,0.2,3.7,0.8,5.5,1.3c2.5,0.8,4.7,2.2,6.8,3.7c1,0.7,1.9,1.7,2.8,2.6c1.1,1.2,2.1,2.5,2.7,4
				c0.3,1,0.8,1.9,0.6,3c-0.2,0.9-0.6,1.2-1.6,1.1c-0.3-0.7-0.6-1.5-0.9-2.2c-0.4-1-0.8-2-1.3-2.9c-0.9-1.6-2.3-2.8-3.8-3.9
				c-0.7-0.5-1.5-0.9-2.3-1.4c-0.8-0.5-1.6-1.1-2.4-1.4c-2.2-0.8-4.3-1.8-6.7-1.9c-0.3,0-0.6-0.1-0.8-0.3
				C168.1,39,167.6,39,167.1,39.1z"/>
			<path class="st70" d="M219.8,90.2c1.2,0,2.4,0,3.6-0.1c0.5,0,1,0,1.5,0c0.4,0.1,0.9,0.2,1.3,0.3c1.7,0.5,3.1,1.4,4.5,2.5
				c0.6,0.5,1,1.1,0.9,1.8c0,0.5-0.5,0.9-1,0.7c-0.4-0.2-0.9-0.4-1.2-0.7c-0.6-0.7-1.2-1.1-2-1.5c-0.4-0.2-0.8-0.5-1.2-0.6
				c-1.4-0.2-2.8-0.3-4.3-0.4c-1.1-0.1-2.2,0.1-3.3,0.4c-1.5,0.3-2.7,0.9-4,1.6c-0.3,0.2-0.7,0.3-1.1,0c-0.3-0.4-0.4-0.7-0.2-1.2
				c0.3-0.7,0.8-1.1,1.5-1.4c0.3-0.1,0.7-0.3,1-0.4C217.1,90.8,218.4,90.4,219.8,90.2z"/>
			<path class="st70" d="M213,93.7C213,93.7,213,93.6,213,93.7C213,93.6,213,93.7,213,93.7z"/>
			<path class="st70" d="M7.7,115C7.7,115,7.7,115,7.7,115C7.7,115,7.7,115,7.7,115z"/>
			<path class="st70" d="M216.8,122c0-0.1,0-0.1,0-0.2C216.8,121.8,216.8,121.9,216.8,122z"/>
			<path class="st70" d="M21.3,87.9c-0.3-0.3-0.1-0.4,0.2-0.4C21.4,87.6,21.3,87.7,21.3,87.9z"/>
			<path class="st70" d="M221.7,72.2c0-0.1,0-0.2,0.1-0.2C221.8,72,221.7,72.1,221.7,72.2z"/>
		</g>
	</g>
	<g>
		<g>
			<path d="M77,151c0.9,0.1,1.6,0.2,2.4,0.3c0.3,0,0.7,0,1,0c0.6,0,1.2-0.1,1.8-0.1c1.8,0.1,3.4,0.7,5.1,1.2
				c1.9,0.5,3.6,1.7,5.3,2.7c1.7,1,3.3,2.2,4.9,3.5c1.7,1.5,3.2,3.3,4.2,5.7c0.5,1.3,0.7,2.6,0.5,4c-0.2,1.2-0.3,2.4-0.2,3.6
				c0.1,1.7-0.8,2.9-1.5,4.2c-0.4,0.7-1,1.3-1.5,1.9c-1.5,1.8-3.5,2.7-5.5,3.4c-1.2,0.4-2.4,0.7-3.7,0.8c-1.3,0.1-2.6,0.4-3.9,0
				c-0.6-0.1-1.2,0-1.7,0c-3-0.5-5.9-1.3-8.7-2.6c-3.4-1.6-6-4.2-8.3-7.4c-0.9-1.3-1.4-2.7-1.8-4.3c-0.5-2-0.2-3.9,0-5.9
				c0.1-0.6,0.2-1.2,0.3-1.9c0-0.2,0-0.4,0.1-0.6c0.6-1.2,1.1-2.4,1.7-3.5c0.4-0.7,0.9-1.3,1.3-1.9c0.1-0.2,0.3-0.4,0.5-0.5
				c1-0.3,1.8-1.2,2.9-1.5c1-0.2,1.9-0.7,3-0.8C75.7,151.3,76.5,151.1,77,151z M78.9,153c0,0,0,0.1,0,0.1c-0.8,0-1.7-0.3-2.4,0
				c-2,0.8-4.2,1.1-6,3.1c-1,1.1-1.8,2.3-2.3,3.9c-0.8,2.6-1,5.4-0.9,8.3c0,0.6,0.2,1.3,0.4,1.8c1.1,2.8,2.7,4.9,4.8,6.3
				c1.3,0.9,2.7,1.6,4,2.3c0.8,0.4,1.7,0.8,2.6,0.9c0.6,0,1.1,0.2,1.6,0.4c0.9,0.4,1.8,1.1,2.9,0.5c0.2-0.1,0.5,0.1,0.8,0.1
				c1.3-0.2,2.7,0.3,4-0.1c1.3-0.3,2.5-0.5,3.8-0.7c0.3-0.1,0.5-0.3,0.8-0.4c1-0.6,1.9-1.5,3.1-1.4c0.3,0,0.7-0.3,0.9-0.6
				c0.3-0.7,0.7-1.1,1.3-1.1c0.2,0,0.3-0.4,0.4-0.6c2.5-2.9,3.3-9.4,0.4-12.9c-0.4-0.5-0.7-1.1-1.1-1.4c-1.3-1.2-2.7-2.4-4-3.5
				c-2.2-1.9-4.8-3-7.3-4.1c-0.7-0.3-1.4-0.5-2.2-0.6C82.8,153.2,80.9,153.1,78.9,153z"/>
			<path d="M169.3,168.1c-0.1-3,0.5-5.6,1.4-8.2c0.6-1.5,1.5-2.8,2.6-3.9c1.2-1.3,2.7-2,4.2-2.6c1.8-0.7,3.7-1.3,5.7-1.4
				c2.3-0.2,4.5,0.1,6.8,0.3c1.6,0.2,3.1,0.8,4.7,1.3c2,0.6,3.9,1.7,5.7,2.9c3.2,2.1,5.7,4.9,6.9,9.2c0.3,1.2,0.4,2.6,0.4,3.9
				c0,1.1-0.1,2.3-0.3,3.4c-0.5,2.7-1.6,4.9-3.8,6.1c-0.6,0.3-1.1,0.8-1.7,1.1c-2.9,1.9-6,3.1-9.3,3.4c-3.4,0.3-6.7,0.1-10.1-0.7
				c-1.4-0.3-2.8-0.5-4.1-1c-2.4-1-4.7-2.2-6.5-4.6c-0.8-1.1-1.4-2.4-1.9-3.8C169.5,171.7,169.2,169.9,169.3,168.1z M185.5,153.5
				c-0.3,0-0.5,0-0.7,0c-3.4-0.1-6.6,0.8-9.5,2.8c-1.7,1.1-2.9,2.7-3.6,4.7c-1.4,3.9-1.6,8-0.5,12.1c0.4,1.6,1.2,2.9,2.3,4
				c1.3,1.4,2.9,2.2,4.6,2.8c3.5,1.3,7.1,1.8,10.8,1.8c2.1,0,4.2,0.1,6.3-0.6c1.5-0.5,3.1-0.8,4.5-1.6c0.9-0.5,1.7-0.9,2.6-1.2
				c1-0.4,1.7-1,2.4-2c1.7-2.7,1.8-5.8,1.7-8.9c-0.1-2.1-1-4-2.2-5.7c-1.4-2-3.1-3.4-5-4.5C194.7,154.8,190.2,153.3,185.5,153.5z"/>
			<path d="M213.5,167.9c-0.1,1.1-0.2,2.2-0.4,3.2c-0.7,3-1.9,5.8-3.2,8.5c-0.4,0.8-0.8,1.5-1.2,2.3c-0.2,0.4-0.5,0.7-0.8,1
				c-0.3,0.3-0.7,0.1-1-0.2c-0.2-0.3-0.2-0.6-0.1-1c0.5-1,0.9-2,1.4-3c0.3-0.8,0.7-1.5,1.1-2.3c0.1-0.1,0.1-0.3,0.2-0.4
				c0.1-1.1,0.5-2.1,1.1-3c0.4-0.6,0.7-1.4,0.9-2.2C211.7,169.5,212.5,168.6,213.5,167.9z"/>
			<path d="M61.9,168.2c0.4,1.3,0.7,2.6,1.1,3.9c0.7,2.3,1.8,4.4,3.2,6.2c0.9,1.2,1.8,2.4,2.6,3.7c-0.5,0.8-1,1-1.6,0.6
				c-0.6-0.4-1.3-0.8-1.8-1.3c-0.8-0.9-1.6-1.9-2.4-2.8c-1.3-1.4-2.1-3.2-2.8-5c-0.5-1.2-0.5-2.5-0.5-3.7
				C59.8,168.7,60.6,168.2,61.9,168.2z"/>
			<path d="M165,171.7c-1-0.6-1.3-1.6-1.5-2.5c-0.3-1.3-0.5-2.7-0.6-4c-0.1-1.4-0.1-2.9,0.6-4.2c0.2-0.3,0.3-0.7,0.4-1.1
				c0.4-1.5,1.4-2,2.8-2.5c-0.3,1.2-0.5,2.3-0.9,3.3c-0.5,1.5-0.8,3-0.7,4.5c0,1.7,0,3.5,0,5.3C165,170.8,165,171.1,165,171.7z"/>
			<path d="M217,177.4c-0.3,2-0.9,3.6-1.8,5.1c-0.3,0.6-0.7,1.1-1,1.7c-0.2,0.4-1.2,0.8-1.6,0.7c-0.7-0.3-1-1.5-0.3-2.2
				c0.8-0.8,1.1-2,1.7-2.9c0.4-0.6,0.9-1.3,1.6-1.6C216.1,178.2,216.5,177.8,217,177.4z"/>
			<path d="M106.8,177.8c-1,2.9-3,4.3-5.2,5.3c-0.7,0.3-1.3,0.2-1.9-0.4c-0.6-0.6-0.5-1.6,0.2-1.7c1.5-0.3,2.4-1.7,3.7-2.2
				C104.7,178.4,105.7,178.1,106.8,177.8z"/>
			<path d="M80.8,164.3c0-0.3,0.1-1,0.3-1.5c0.4-1.3,2.2-2.3,3.4-1.9c1.4,0.4,2.6,1.2,3.4,2.8c0.4,0.9,0.6,1.7,0.4,2.7
				c-0.1,0.5-0.2,1,0,1.5c0.1,0.3-0.3,1-0.6,1.2c-1.6,1.2-3.3,1.3-4.9,0.1C81.2,168.2,80.7,166.6,80.8,164.3z M86.5,166.7
				c-0.1-0.4-0.1-0.8-0.2-1.2c-0.3-1.3-0.9-1.8-1.8-1.6c-0.8,0.2-1.2,0.9-1.1,2.2c0,0.1,0.1,0.3,0.2,0.4
				C84.6,166.7,85.5,167.3,86.5,166.7z"/>
			<path d="M191.2,168.4c0,0,0,0.1-0.1,0.3c-0.4,1.4-0.9,1.8-2.2,1.7c-1.7-0.1-3-2.5-2.1-4.2c0.2-0.4,0.2-1,0.4-1.4
				c0.5-1.5,1.9-1.7,2.7-0.5c0.5,0.8,0.9,1.6,1,2.6C191,167.3,191.1,167.7,191.2,168.4z M188.5,167.6c0.3,0,0.6-0.1,0.9-0.1
				c0-0.8,0.3-1.7-0.5-2.3C188.5,166,188.4,166.7,188.5,167.6z"/>
		</g>
	</g>
	<path d="M182.4,92.6c-4.7-1-9.2-1.6-13.5-1.8c-3.1-0.2-6.3,0-9.4,0.1c-2.1,0.1-4.3,0.1-6.5,0.1c-2.6,0-5.3-0.1-7.8-0.2
		c-2.5-0.1-5.1-0.2-7.6-0.2c-4.2,0-8.4,0-12.5,0.1c-2.4,0-4.7,0.1-7.1,0.1c-1.1,0-2.2,0-3.3-0.1c-1,0-2-0.1-3-0.1
		c-1.1,0-2.1,0-3.2,0.1c-1,0.1-2,0.1-3,0.2c-2.6,0.1-5.3,0.2-7.8,1.2c-2.5,1-5.1,1.8-7.7,2.5c-0.9,0.3-1.9,0.6-2.8,0.9
		c-0.9,0.3-1.9,0.6-2.9,0.8c-4.1,1.2-8.2,2.4-11.6,5.2c-0.3,0.2-0.6,0.4-0.9,0.5c-0.2,0.1-0.3,0.1-0.5,0.2c-4.7,2.4-10,5.3-13.9,9.6
		c-4.9,5.4-8,10-10.3,14.9c-3,6.7-1.8,11.4,4,15.1c0.7,0.4,1.4,0.9,1.6,1.6c0.6,1.8,2,2.9,4.4,3.7l1.1,0.4c3.7,1.2,7.6,2.5,11.4,3.4
		c2.2,0.5,4.4,1,6.6,1.4c2.7,0.5,5.5,1.1,8.2,1.8c1.2,0.4,2.5,0.7,3.7,1.1c3.3,1,6.8,2.1,10.3,2.5c5,0.6,10.6,1.3,16.1,0.1
		c5.9-1.3,11.8-1.2,17.6-1l2,0.1c4.2,0.1,7.8-0.1,11.2-0.6c3.3-0.5,6.6-1,9.8-1.5c1.4-0.2,2.8-0.5,4.2-0.7l0.5-0.1l0.1,0.6
		c0.6-0.1,1.2-0.2,1.8-0.3c1.7-0.3,3.4-0.5,5.2-0.7c2.6-0.3,5.2-0.6,7.8-0.9c1.6-0.2,3.1-0.4,4.7-0.5l0.6-0.1
		c0.7-0.1,1.3-0.1,1.9-0.3c5.2-1.6,10.6-4,16.6-7.3c2.9-1.6,5.9-3.2,8.1-5.8c3.2-3.8,6.6-7.9,8.9-12.7c0.6-1.3,0.9-2.9,1-4.6
		c0.1-4.9-1.8-9.4-5.4-13C202.5,100.1,193,94.8,182.4,92.6z M125.5,98.5c3.5-1.5,7.5-0.6,9.6,2c2.2,2.8,4.3,5.9,6.7,9.8
		c2.6,4.2,1.7,8,0.5,11.5c-0.4,1.3-1.2,2.2-2.2,2.5c-0.3,0.1-0.6,0.2-1,0.2c-0.8,0-1.6-0.3-2.4-0.8c-2.4-1.6-3.8-4.1-4.7-6.1
		c-1.1-2.5-2-5.1-2.8-7.7c-0.5-1.4-0.9-2.8-1.4-4.1c-0.5-1.5-1.1-3-1.8-4.5c-0.3-0.7-0.6-1.4-0.9-2.1l-0.2-0.5L125.5,98.5z
		 M88.2,98.1l0.1,0.6c0.4,2.7,1.5,3.8,4.2,4.1c0.8,0.1,1.8,0.2,2.7,0c3.9-0.9,6.4,1.3,8.1,3.4c1.7,2,3.1,4.5,4.5,7.6
		c1.8,4,1.1,8,0.2,11.7c-0.3,1.3-0.9,2.6-1.4,3.8l-0.3,0.7c-0.5,1.2-1.1,1.9-1.8,2.2c-0.2,0.1-0.5,0.1-0.7,0.1
		c-0.6,0-1.2-0.2-2.1-0.6c-1-0.5-2-1.3-2.7-1.9c-5.1-4.3-8.2-9.4-9.4-15.6c-1-5.5-2.6-10-4.9-14.3l-0.3-0.5L88.2,98.1z M210,124.3
		c-2.2,5.5-5.6,9.3-10.6,11.6c-0.7,0.3-1.4,0.7-2.2,1c-5.2,2.5-10.6,5-16.5,5.9c-2.3,0.3-4.6,0.4-6.8,0.5c-1,0-2.1,0-3.1,0.1
		c-3.7,0.2-7.4-0.2-11.1-1.3c-5-1.4-10-0.7-15.1,0.2c-3.5,0.6-7.1,1.3-10.6,2c-5,1-10.1,2-15.2,2.8c-8.6,1.4-17.1,1.4-25.2,0.1
		c-1.3-0.2-2.8-0.3-4-0.3c-6.8-0.3-12.7-2.7-17.5-7.1c-1.6-1.4-2.7-3.4-3.8-5.3c-1-1.8-2.2-2.5-3.9-2.4c-2.6,0.3-4.9-0.4-6.8-1.1
		c-1.7-0.6-2.9-1.6-3.3-2.9c-0.4-1.2-0.2-2.5,0.5-3.9c1.5-2.6,3.2-5,5-7.3l0.5-0.7c0.8-1.1,1.7-2.2,2.7-3.3c0.4-0.4,0.7-0.8,1.1-1.3
		l-0.4-0.8l-1,1.3c-0.8,1-1.5,2-2.3,3c-1.8,2.3-3.4,4.4-4.9,6.7c-0.9,1.3-1.6,3-2,4.9c-0.4,2,0.1,3,2.1,3.9l0.6,0.3
		c2.1,1,4.1,1.9,6.3,1.5c2.7-0.4,4.5,0.6,5.5,3.2c1.6,4.2,5.2,6.3,9,8.5L77,144c3.7,2.1,7.7,2.8,11.2,3.2c5.6,0.6,11.3,1.1,17.1,1.3
		c5.2,0.2,10.8-0.3,18.2-1.7c2.8-0.5,5.5-1.1,8.2-1.6c4.2-0.8,8.6-1.7,13-2.4c6.3-1,11.6-0.9,16.7,0.4c8.4,2.2,17.2,1.7,26.1-1.3
		c0.4-0.1,0.8-0.3,1.3-0.4c1.9-0.7,3.9-1.4,6-1.7l3-0.5l-3.2,1.7c-0.4,0.2-0.8,0.4-1.2,0.6c-4.9,2.6-10.4,5.5-16.4,6.8
		c-2.2,0.5-4.5,0.7-6.7,0.9c-0.9,0.1-1.7,0.2-2.6,0.3c-2.7,0.3-5.4,0.6-8.1,0.9c-6,0.6-12.1,1.3-18.2,2.2c-3.1,0.5-6.2,0.4-9.2,0.4
		c-1.7,0-3.4,0-5.1,0c-1.4,0.1-2.8,0.1-4.2,0.1c-3.3,0-6.7,0.1-10,0.7c-2.6,0.5-5.1,0.7-7.7,0.7c-2.7,0-5.3-0.3-7.9-0.8
		c-2.2-0.4-4.3-1-6.4-1.6c-1.6-0.4-3.2-0.9-4.9-1.3c-2.5-0.6-5-1.1-7.4-1.6c-3.2-0.7-6.5-1.4-9.7-2.2c-2.4-0.6-4.8-1.4-7.1-2.1
		c-1-0.3-2-0.6-2.9-1c-0.1,0-0.6-0.2-0.8-0.6c-0.9-1.8-2.4-2.2-4.2-2.8c-0.4-0.1-0.9-0.3-1.3-0.4c-1.9-0.7-3.4-2.1-4.2-4.1
		c-0.9-2.2-0.8-4.8,0.4-6.9c0.3-0.5,0.5-1,0.7-1.6c0.1-0.4,0.3-0.7,0.4-1.1c2.3-5.1,5.8-9.8,11.1-14.9c0.1-0.1,0.3-0.2,0.5-0.3
		c0.1-0.1,0.3-0.1,0.5-0.2l1.5-0.8l-0.4-0.9l0.4-0.2c2.4-1.2,4.8-2.5,7.1-3.9c3.6-2.1,7.2-4.2,11.3-5.6l0.5-0.2l0.2,0.4
		c1.8,4.6,3.5,8.8,3.9,13.5c0.5,6.4,3.4,11.9,8.9,17.1c3.5,3.3,6.8,4.7,10.3,4.4c0.6,0,1.4-0.1,1.9-0.5c1.8-1.4,3.8-3.3,4.5-5.8
		c0.8-3.2,1.6-6.3,1.3-9.5c0-0.4,0.1-0.7,0.2-1c0.1-0.2,0.1-0.3,0.1-0.5l0-0.3c0.1-0.5,0.1-1,0-1.4c-0.3-0.7-0.6-1.4-0.9-2.1
		c-0.4-0.9-0.8-1.7-1.1-2.7c-2.3-6.9-10.9-13.4-17-12.9c-0.5,0-1,0-1.6-0.1c-0.3,0-0.7-0.1-1.1-0.1L90,98.1l1.8-0.8
		c9.4-4.2,19-4.1,27.9-3.7l0.3,0l0.1,0.3c0.1,0.3,0.2,0.6,0.3,0.9c0.2,0.6,0.4,1.2,0.7,1.6c0.3,0.4,0.8,0.7,1.2,0.9
		c0.2,0.1,0.4,0.2,0.5,0.3l0.2,0.1l0,0.2c0.4,1.8,0.9,3.6,1.3,5.4c1,4.2,2,8.2,3.1,12.3c0.8,3.1,2.4,6.1,5,9.2c2.5,3.1,8,4,12,2.1
		c0.5-0.3,1.1-0.8,1.4-1.4c0.3-0.5,0.5-1,0.8-1.5c0.9-1.6,1.8-3.2,2.2-4.9c0.1-0.4,0.2-0.8,0.3-1.2c0.5-2.1,1.1-4-1-5.6
		c-0.4-0.3-0.7-0.8-0.8-1.3c-0.7-3.2-2.7-5.8-4.6-8.3c-0.4-0.6-0.9-1.2-1.3-1.8c-1-1.4-2.5-2.5-4-3.6c-0.5-0.3-0.9-0.7-1.4-1
		c-0.6-0.4-1.3-0.8-2-1.1c-0.3-0.2-0.7-0.3-1-0.5l-0.4-0.2l0.6-1.1l17.5,0.6l0.1,0.4c0.6,2.3,0.6,2.3,3.5,3.8l0.2,0.1l0.1,0.2
		c0.4,1.1,0.7,2.1,1.1,3.2c0.9,2.4,1.7,4.9,2.5,7.5c1,3.1,1.9,6.3,2.8,9.3c0.5,1.6,0.9,3.3,1.4,4.9c1,3.4,2.7,5,5.7,5.5
		c2.1,0.3,4-0.1,6.1-0.5c0.4-0.1,0.8-0.2,1.2-0.3c0.6-0.1,1.3-0.8,1.7-1.3c2.1-3.1,3.2-5.8,3.5-8.6c0.3-3.2-0.7-5.9-2.8-8.1
		c-1.5-1.5-3-3.1-4.4-4.7c-0.6-0.7-1.3-1.5-1.9-2.2c-3-3.3-6.9-5.6-12.1-8.2l-1.9-0.9h2.1c0.7,0,1.3,0,1.9,0c1.1,0,2.1,0,3.1,0
		c1.4,0.1,2.8,0.1,4.3,0.2c5.3,0.2,10.7,0.5,16,2.1c8.1,2.6,14.2,5.8,19.1,10.2c2.2,2,4.9,4.4,6.2,7.9
		C211.2,118.1,211.2,121.2,210,124.3z M157.8,99.2l0.8,0.2c3,0.9,5.1,3,7,5l0.2,0.2c1.5,1.5,2.9,3.1,4.3,4.7
		c0.8,0.9,1.7,1.9,2.5,2.8c2,2.1,2.4,4.8,1.3,7.8c-0.6,1.7-1.7,3.3-2.6,4.6c-0.4,0.6-1,1-1.7,1c0,0-0.1,0-0.1,0
		c-0.7-0.1-1.3-0.5-1.6-1.2c-0.7-1.5-1.3-3-1.9-4.5c-0.2-0.5-0.4-1-0.6-1.4c-0.2-0.6-0.4-1.1-0.7-1.7c-0.2-0.6-0.4-1.2-0.7-1.7
		l-0.7-1.7c-0.9-2.2-1.8-4.4-2.7-6.6c-0.5-1.2-1.1-2.4-1.7-3.6c-0.3-0.7-0.7-1.4-1-2.1c-0.1-0.2-0.1-0.5-0.1-0.7c0-0.1,0-0.2,0-0.3
		L157.8,99.2z"/>
</g>
</svg>
