<?xml version="1.0" encoding="utf-8"?>
<!-- Generator: Adobe Illustrator 22.1.0, SVG Export Plug-In . SVG Version: 6.00 Build 0)  -->
<svg version="1.1" id="Слой_1" xmlns="http://www.w3.org/2000/svg" xmlns:xlink="http://www.w3.org/1999/xlink" x="0px" y="0px"
	 viewBox="0 0 238 215" style="enable-background:new 0 0 238 215;" xml:space="preserve">
<style type="text/css">
	.st0{fill:#E2DB6F;}
	.st1{opacity:0.3;}
	.st2{fill:none;stroke:#0C0C0C;stroke-miterlimit:10;}
	.st3{fill:#0C0C0C;}
	.st4{fill:#E0CFBE;}
	.st5{fill:#A8801D;}
	.st6{fill:#C2C2C2;}
	.st7{fill:#5D5D5D;}
	.st8{fill:none;stroke:#5D5D5D;stroke-miterlimit:10;}
	.st9{fill:none;stroke:#000000;stroke-miterlimit:10;}
	.st10{fill:#9B9B9B;}
	.st11{fill:#201600;}
	.st12{fill:#070707;}
	.st13{fill:url(#SVGID_21_);}
	.st14{fill:none;stroke:#2A2927;stroke-miterlimit:10;}
	.st15{fill:#2A2927;}
	.st16{opacity:0.74;}
	.st17{fill:none;stroke:#E35B22;stroke-miterlimit:10;}
	.st18{stroke:#D5D5D5;stroke-width:0.5;stroke-miterlimit:10;}
	.st19{opacity:0.79;clip-path:url(#SVGID_53_);}
	.st20{clip-path:url(#SVGID_55_);}
	.st21{opacity:0.87;}
	.st22{opacity:0.5;}
	.st23{clip-path:url(#SVGID_61_);}
	.st24{opacity:0.97;clip-path:url(#SVGID_69_);}
	.st25{opacity:0.97;clip-path:url(#SVGID_71_);}
	.st26{clip-path:url(#SVGID_73_);}
	.st27{clip-path:url(#SVGID_75_);}
	.st28{opacity:0.97;clip-path:url(#SVGID_81_);}
	.st29{clip-path:url(#SVGID_83_);}
	.st30{clip-path:url(#SVGID_85_);}
	.st31{clip-path:url(#SVGID_87_);}
	.st32{clip-path:url(#SVGID_99_);}
	.st33{opacity:0.97;clip-path:url(#SVGID_107_);}
	.st34{clip-path:url(#SVGID_109_);}
	.st35{clip-path:url(#SVGID_111_);}
	.st36{clip-path:url(#SVGID_113_);}
	.st37{fill:#E8E8E8;}
	.st38{fill:#FF0000;}
	.st39{fill:none;stroke:#FFFFFF;stroke-miterlimit:10;}
	.st40{fill:#D8D8D8;}
	.st41{fill:none;stroke:#0C0C0C;stroke-linecap:round;stroke-miterlimit:10;}
	.st42{clip-path:url(#SVGID_129_);}
	.st43{opacity:0.97;clip-path:url(#SVGID_137_);}
	.st44{clip-path:url(#SVGID_139_);}
	.st45{clip-path:url(#SVGID_141_);}
	.st46{clip-path:url(#SVGID_143_);}
	.st47{clip-path:url(#SVGID_155_);}
	.st48{opacity:0.97;clip-path:url(#SVGID_163_);}
	.st49{clip-path:url(#SVGID_165_);}
	.st50{clip-path:url(#SVGID_167_);}
	.st51{clip-path:url(#SVGID_169_);}
	.st52{fill:#FFFFFF;}
	.st53{filter:url(#Adobe_OpacityMaskFilter);}
	.st54{opacity:0.11;mask:url(#SVGID_176_);}
	.st55{opacity:0.71;}
	.st56{filter:url(#Adobe_OpacityMaskFilter_1_);}
	.st57{opacity:0.11;mask:url(#SVGID_177_);}
	.st58{filter:url(#Adobe_OpacityMaskFilter_2_);}
	.st59{opacity:0.11;mask:url(#SVGID_178_);}
	.st60{filter:url(#Adobe_OpacityMaskFilter_3_);}
	.st61{opacity:0.11;mask:url(#SVGID_179_);}
	.st62{opacity:0.56;}
	.st63{fill:none;stroke:#000000;stroke-width:2;stroke-miterlimit:10;}
	.st64{opacity:0.3;fill:none;stroke:#000000;stroke-miterlimit:10;}
	.st65{fill:none;stroke:#DDDDDD;stroke-miterlimit:10;}
	.st66{fill:none;}
	.st67{opacity:0.3;fill:none;stroke:#5D5D5D;stroke-miterlimit:10;}
	.st68{opacity:0.7;}
	.st69{fill:none;stroke:#E2DB6F;stroke-miterlimit:10;stroke-dasharray:11.9153,11.9153;}
	.st70{fill:#E7DD6B;}
	.st71{fill:#C73D3D;}
	.st72{clip-path:url(#SVGID_189_);}
	.st73{clip-path:url(#SVGID_191_);}
</style>
<g>
	<ellipse class="st70" cx="74.5" cy="88" rx="12.2" ry="11.6"/>
	<ellipse class="st70" cx="119.4" cy="71.4" rx="12.1" ry="11.5"/>
	<path class="st70" d="M128.5,179.2c-59,0-113.5,14.6-113.5-13.4c0-14.6,27.8-63.8,113.5-55.6c98.3,9.4,106.9,15.4,106.9,34.5
		C235.4,168.1,173.1,179.2,128.5,179.2z"/>
	<g>
		<g>
			<path d="M2,168.9c1.1-1.3,1.8-1.6,3-1.2c0.5,0.2,0.9,0.4,1,1.1c0,0.4,0.3,0.6,0.7,0.8c1.7,0.5,3.3,1,5,1.4c1.6,0.4,3.3,0.7,4.9,1
				c0.2,0,0.4,0,0.5,0.1c1,0.6,2.2,0.5,3.3,0.8c1.7,0.4,3.5,0.6,5.3,1c2.5,0.4,5,0.9,7.5,1.3c2,0.3,4.1,0.5,6.1,0.8
				c0.9,0.1,1.9,0.3,2.8,0.5c1.8,0.3,3.6,0.5,5.4,0.8c1,0.2,2,0.4,3,0.5c1.5,0.2,3,0.4,4.5,0.6c0.5,0.1,1.1,0.2,1.6,0.2
				c1.4,0.2,2.8,0.2,4.1,0.5c3.1,0.6,6.3,0.7,9.4,1.1c1.9,0.2,3.8,0.3,5.7,0.5c1.6,0.1,3.3,0.2,4.9,0.3c0.6,0,1.2,0.2,1.9,0.2
				c2.2,0.1,4.3,0.2,6.5,0.2c3.7,0.1,7.3,0.2,11,0.3c0.9,0,1.8-0.1,2.6-0.1c1.3,0,2.6,0.1,3.9,0.1c0.8,0,1.6-0.1,2.4-0.1
				c1.1,0,2.1,0.1,3.2,0.2c0.7,0,1.3-0.1,2-0.1c3,0,6,0,8.9,0c1.4,0,2.8-0.1,4.2-0.2c2.8-0.1,5.6-0.1,8.4-0.3
				c2.4-0.1,4.8-0.3,7.3-0.4c2.3-0.1,4.6-0.2,6.9-0.3c1.8-0.1,3.6-0.3,5.5-0.4c1.9-0.1,3.7-0.2,5.6-0.3c1-0.1,2-0.3,2.9-0.4
				c2.6-0.2,5.3-0.4,7.9-0.7c0.7-0.1,1.4-0.3,2.2-0.4c1.5-0.2,2.9-0.3,4.4-0.5c1.3-0.2,2.6-0.4,3.9-0.7c2-0.4,4-1,6-1.2
				c1.2-0.1,2.4-0.3,3.5-0.5c1.3-0.3,2.7-0.5,4.1-0.8c1.4-0.3,2.7-0.5,4.1-0.8c0.1,0,0.2,0,0.2,0c1.7-0.8,3.6-0.6,5.2-1.5
				c0.9-0.5,2.1-0.5,3.2-0.9c2-0.7,4-1.5,6-2.4c1.5-0.6,2.8-1.5,4.2-2.3c1.2-0.7,2.3-1.6,3.5-2.3c2-1.2,3.7-2.8,5.3-4.3
				c1.2-1.2,2.3-2.5,3.3-4c0.5-0.8,1.1-1.6,1.7-2.4c0.5-0.7,1.1-1.3,1.7-2c0.1-0.2,0.2-0.4,0.2-0.6c-0.2-0.8-0.5-1.6-0.8-2.4
				c-0.2-0.5-0.3-1-0.5-1.4c-0.5-1-0.9-2.1-1.4-3.1c-0.5-1-0.9-2-1.5-2.9c-0.5-0.9-1.2-1.8-1.8-2.7c-0.8-1.2-1.6-2.5-2.5-3.7
				c-0.4-0.6-0.8-1.2-1.4-1.6c-0.3-0.2-0.5-0.7-0.8-1c-1.2-1.4-2.4-2.8-3.6-4.1c-1.1-1.2-2.3-2.3-3.5-3.4c-0.9-0.9-2-1.6-3-2.4
				c-1.6-1.2-3.2-2.5-4.9-3.7c-2-1.4-4.1-2.7-6.2-3.9c-2.3-1.3-4.7-2.6-7.1-3.8c-1.9-0.9-3.8-1.7-5.8-2.4c-1.1-0.4-2.3-0.5-3.4-0.8
				c-1.9-0.4-3.9-0.9-5.8-1.1c-2.3-0.3-4.1-1.5-5.8-2.9c-0.4-0.4-0.9-0.7-1.4-0.9c0.1,0.2,0.2,0.4,0.4,0.6c1.7,1.6,2.9,3.7,4.3,5.5
				c0.2,0.3,0.5,0.7,0.5,1.1c0.2,0.8,0.6,1.4,1.1,2c0.1,0.2,0.2,0.4,0.2,0.7c0.1,0.5,0.1,1.1,0.7,1.4c0,1,1.4,1.5,0.6,2.6
				c0.3,0.2,0.4,0.3,0.6,0.5c0.4,0.3,0.5,0.7,0.3,1.1c-0.3,0.5-0.1,0.9,0.2,1.3c0.4,0.5,0.6,1,0.7,1.7c0.1,0.9,0.5,1.7,0.7,2.5
				c0.3,1.2,0.7,2.4,0.9,3.7c0.2,2.2,0.7,4.4,0.4,6.6c-0.3,1.9-0.6,3.9-1.3,5.7c-0.6,1.5-1.2,3-2.6,4.1c-0.5,0.4-0.9,1-1.5,1.3
				c-1.6,0.9-3.4,1.4-5.2,1.2c-0.1,0-0.2,0-0.2,0c-1.6,0.4-2.8-0.6-4-1.5c-0.7-0.5-1.6-1.3-1-2.5c1.7-1.1,2.7-0.9,4.1,0.6
				c0.8,0.9,1.9,0.8,2.9,0.7c1.4-0.2,2.4-1.2,2.9-2.5c0.6-1.3,1.1-2.7,1.5-4.1c0.4-1.5,0.8-2.9,0.5-4.5c-0.1-0.6,0.1-1.3,0-2
				c-0.2-2-0.2-4-0.8-5.9c-0.5-1.5-0.6-3.1-1-4.6c-0.5-1.8-1.1-3.5-1.7-5.2c-0.9-2.3-2.1-4.5-3.4-6.7c-1-1.6-2-3.1-3.3-4.4
				c-1.1-1.2-2.4-2.1-3.7-3.1c-1.4-1-2.8-1.8-4.3-2.8c-0.1-0.1-0.2-0.1-0.3-0.2c-0.1-0.2-0.2-0.4-0.3-0.6c0.2-0.1,0.4-0.2,0.7-0.2
				c0.2,0,0.4,0,0.5,0.1c2,0.9,4,1.9,5.9,2.8c0.5,0.3,1,0.7,1.6,0.9c-0.3-0.3-0.6-0.6-0.9-0.9c-2-1.8-4.3-3.2-6.9-4.3
				c-1.5-0.6-3-1.5-4.5-2.1c-2.1-0.9-4.1-1.7-6.2-2.4c-3.6-1.2-7.3-1.9-11-2.7c-2.5-0.5-5-0.6-7.5-0.6c-2.1,0-4.2,0.1-6.3,0.2
				c-2.2,0.2-4.5,0.3-6.7,0.7c-2.3,0.4-4.5,1-6.7,1.6c-2.2,0.5-4.4,1.1-6.6,1.7c-0.5,0.1-1,0.4-1.5,0.6c-2.7,0.9-5.3,2-7.9,3.2
				c-1.9,0.9-3.9,1.9-5.8,2.9c-1.8,0.9-3.5,1.9-5,3.3c1.2,0.5,2.3,1.1,3.5,1.6c1.2,0.4,2.3,1.2,3.3,1.9c0.1,0.1,0.2,0.2,0.3,0.3
				c2,0.9,3.2,2.9,4.9,4.2c1,0.8,1.7,1.9,2.5,2.9c1.8,2.1,3.3,4.5,4.6,6.9c0.9,1.7,2.1,3.4,2.5,5.4c0.7,0.8,0.9,1.7,0.9,2.7
				c0,0.4,0.3,0.8,0.5,1.2c0.3,0.5,0.3,1.1,0.3,1.7c0,0.7,0.1,1.5,0.4,2.1c0.5,1.2,0.4,2.4,0.3,3.5c-0.1,0.6-0.1,1.2,0.1,1.8
				c0.2,0.6,0.1,1.3,0.1,1.9c0,0.9,0,1.9,0.1,2.8c0,0.1,0,0.3-0.1,0.4c-0.7,0.8-0.7,1.8-0.9,2.7c-0.1,0.6-0.3,1.1-0.6,1.6
				c-0.7,1.1-1.6,2.1-2.4,3.1c0,0.1-0.1,0.1-0.1,0.2c-1.4,0.5-2.6,1.6-4.3,1.2c-0.7-0.2-1.1-0.5-1.2-1.1c0-0.6,0.3-1.1,1-1.2
				c1.8-0.2,2.7-1.5,3.4-2.9c1.1-2.2,1.5-4.5,1.4-6.9c0-0.5,0-1,0.1-1.4c0.3-1.6-0.4-3-0.3-4.6c0.1-1.5-0.5-3-0.8-4.5
				c-0.4-2.3-1.3-4.5-2.3-6.6c-1-2.2-2-4.4-3.3-6.4c-1.7-2.5-3.6-5-5.8-7.1c-1.4-1.4-3-2.5-4.6-3.8c-0.2-0.1-0.4-0.1-0.7-0.2
				c0,0.3-0.1,0.6-0.1,0.8c0,0.8,0,1.5-0.4,2.2c-0.2,0.4-0.1,0.9-0.2,1.4c-0.1,0.5-0.1,1.1-0.3,1.6c-0.5,1.1-0.7,2.2-0.4,3.4
				c0,0.1,0.1,0.2,0,0.2c-0.6,1-0.2,2.1-0.5,3.1c-0.1,0.3-0.2,0.7-0.1,1.1c0.1,0.6,0.1,1.1-0.1,1.7c-0.1,0.2-0.1,0.5,0,0.8
				c0.2,0.7,0.6,1.3,0.1,2c0,0.1,0,0.2,0,0.3c0.3,0.7,0.2,1.3,0,2.1c-0.2,0.9,0.2,1.9,0.4,2.8c0.2,1.2,0.5,2.4,0.9,3.6
				c0.3,1,0.4,2.1,1.2,3c0.5,0.5,0.7,1.3,1,1.9c0.7,1.3,1.4,2.7,2.2,4c0.8,1.1,1.8,2.1,2.7,3.1c1.2,1.4,2.4,2.8,3.6,4.3
				c0.3,0.4,0.4,0.9,0.6,1.4c0.1,0.2-0.1,0.5-0.2,0.8c-0.2-0.1-0.5-0.1-0.7-0.3c-0.7-0.6-1.4-1.3-2.1-2c-1.7-1.6-3.4-3.1-5-4.8
				c-2.5-2.6-4.4-5.5-5.5-8.9c-0.2-0.5-0.5-1-0.7-1.5c-0.6-1.4-0.7-3-1.1-4.5c-0.3-1.5-0.4-3-0.5-4.5c-0.1-1.6,0-3.2,0.1-4.9
				c0,0,0-0.1,0-0.1c-0.4-1.8,0.3-3.6,0.4-5.3c0.1-1.7,0.5-3.3,0.8-5c0.1-0.8,0.1-1.6,0.5-2.3c0.1-0.3,0-0.7,0-1.1
				c-0.1-1.2-0.1-1.3,1.1-1.4c0.1,0,0.3,0,0.6,0c-1-0.9-2.1-1.1-3.1-1.5c-0.4-0.1-0.9,0.3-1.1-0.4c0-0.1-0.5-0.1-0.7,0
				c-1.9,0.2-3.7,0.5-5.6,0.8c-2.4,0.3-4.9,0.6-7.3,1c-1.6,0.3-3.2,0.6-4.7,1c-2.3,0.5-4.6,1.1-6.9,1.7c-2.1,0.6-4.1,1.4-6.1,2.2
				c-1.6,0.6-3.2,1.3-4.7,2.1c-1.1,0.5-2.1,1.2-3.1,1.8c-1.6,1.1-3.2,2.3-4.8,3.5c-1.4,1.1-2.8,2.2-4.2,3.4
				c-1.7,1.5-3.4,2.9-4.8,4.6c-0.7,0.9-1.6,1.6-2.4,2.4c-0.7,0.6-1.3,1.2-1.8,2c-0.1,0.2-0.2,0.3-0.4,0.4c-1,0.6-1.7,1.5-2.3,2.5
				c-1.2,1.7-2.4,3.5-3.7,5.2c-1.1,1.4-1.8,3.2-2.7,4.7c-1,1.6-1.9,3.3-2.5,5c-0.3,0.7-0.7,1.3-1.1,1.9c-0.9,1.5-1.5,3.2-2.1,4.9
				c-0.4,1.1-1,2-1.5,3.1c-0.4,0.8-0.6,1.6-1,2.4c-0.3,0.7-0.8,1.1-1.5,1.1c0-1.1,0.5-2,0.8-3c0.7-2,1.4-4.1,2.2-6.1
				c0.9-2.1,1.9-4,2.9-6c1-1.9,1.9-3.8,2.9-5.6c0.6-1.1,1.3-2.1,1.9-3.2c1.5-2.5,3.3-4.8,5.3-6.9c2.1-2.3,4.2-4.5,6.5-6.6
				c1.9-1.8,3.8-3.5,5.8-5.2c1.5-1.3,3.1-2.5,4.7-3.6c2.2-1.6,4.6-3.1,7-4.2c1.3-0.6,2.6-1.2,3.9-1.7c3.5-1.4,7.1-2.6,10.8-3.4
				c1.7-0.4,3.5-0.7,5.3-1.1c2-0.4,4-0.8,6-1.1c1.4-0.2,2.9-0.4,4.3-0.6c2-0.3,4-0.5,6-0.8c0.3,0,0.7-0.1,1-0.1
				c0.5,0,0.9-0.3,1.3-0.6c0.8-0.6,1.6-1.2,2.5-1.8c1.3-0.8,2.6-1.6,3.9-2.2c1.8-0.9,3.7-1.8,5.6-2.6c1.4-0.6,2.7-1.2,4.2-1.7
				c1.9-0.7,3.9-1.4,5.8-2c2.2-0.7,4.5-1.3,6.8-1.8c2.9-0.6,5.8-1.3,8.8-1.4c1.8-0.1,3.6-0.4,5.3-0.5c1.5-0.1,3.1-0.1,4.6,0
				c1.7,0,3.3,0,5,0.2c1.4,0.1,2.8,0.4,4.2,0.7c1.5,0.3,3.1,0.7,4.6,1.1c2.3,0.6,4.5,1.3,6.7,2c1.6,0.5,3.2,1.2,4.8,1.9
				c1.4,0.6,2.7,1.2,4.1,1.8c1.2,0.5,2.4,1,3.6,1.7c1.5,0.9,3,1.8,4.2,3.1c1.1,1.2,2.5,2.1,3.8,3.1c0.7,0.6,1.5,1,2.2,1.6
				c1.2,0.9,2.5,1.2,4,1.3c1,0.1,2,0.3,2.9,0.5c2.5,0.6,5,1.1,7.5,1.8c1.4,0.4,2.6,1.1,3.9,1.6c1.7,0.7,3.4,1.6,5.1,2.5
				c1,0.6,2.2,1.1,3.2,1.7c1.6,0.9,3.1,2,4.7,2.9c1.6,0.9,3,1.9,4.4,3c0.8,0.7,1.8,1.3,2.6,2c1.5,1.4,3.1,2.7,4.7,4.1
				c1.3,1.1,2.4,2.5,3.6,3.7c0.4,0.4,0.9,0.8,1.3,1.2c0.3,0.3,0.5,0.7,0.8,1c0.6,0.7,1.2,1.3,1.7,2.1c0.8,1.2,1.9,2.2,2.5,3.6
				c0.3,0.7,0.8,1.3,1.3,1.9c0.7,0.8,1.2,1.8,1.7,2.8c0.3,0.7,0.8,1.3,1.2,2c0.2,0.4,0.3,0.8,0.5,1.2c0.4,1,0.9,1.9,1.3,2.9
				c0.4,1,0.6,2.1,0.9,3.1c0,0.1,0.1,0.2,0.1,0.3c0.8,1.2,0.1,2.2-0.5,3.1c-0.3,0.5-0.8,1-1.1,1.5c-0.4,0.5-0.5,1.2-1.2,1.5
				c-0.1,0-0.2,0.2-0.2,0.3c-0.1,0.1,0,0.3-0.1,0.4c-0.9,1.1-1.7,2.2-2.6,3.2c-0.9,1.1-1.9,2.1-2.9,3.1c-0.7,0.7-1.5,1.3-2.4,1.9
				c-1.7,1.2-3.5,2.2-5.1,3.6c-1,0.8-2.1,1.1-3.1,1.7c-1.7,1-3.6,1.6-5.4,2.4c-0.9,0.5-2,0.6-3.1,0.9c-0.5,0.1-0.9,0.2-1.4,0.4
				c-0.8,0.4-1.7,0.7-2.6,0.7c-0.7,0.1-1.4,0.4-2.1,0.5c-1.2,0.3-2.4,0.5-3.5,0.7c-0.5,0.1-1,0.3-1.6,0.4c-2.1,0.4-4.1,0.7-6.2,1.1
				c-1.7,0.3-3.3,0.7-4.9,1c-2.7,0.4-5.5,0.8-8.2,1.2c-1.7,0.3-3.4,0.6-5.1,0.7c-1.9,0.1-3.8,0.6-5.8,0.7c-1,0-2,0.3-2.9,0.4
				c-1.8,0.1-3.5,0.1-5.3,0.3c-2.3,0.3-4.6,0.4-6.9,0.6c-1.5,0.1-3,0.1-4.5,0.1c-0.9,0-1.8,0.2-2.7,0.3c-1.6,0.1-3.2,0.1-4.9,0.1
				c-2.1,0.1-4.2,0.3-6.3,0.4c-0.6,0-1.2,0-1.8,0c-2.2,0.1-4.5,0.1-6.7,0.2c-2.5,0-5,0-7.5,0.1c-2.5,0-5,0.1-7.5,0.1
				c-1.3,0-2.5-0.1-3.8-0.1c-0.9,0-1.8,0.1-2.7,0.1c-1.8,0-3.7,0.1-5.5,0c-3.9-0.1-7.8-0.1-11.7-0.3c-2.4-0.1-4.8-0.2-7.2-0.4
				c-2.2-0.1-4.5-0.3-6.7-0.4c-2-0.2-4.1-0.4-6.1-0.6c-1.2-0.1-2.4-0.2-3.6-0.3c-0.1,0-0.3,0-0.4,0c-1.9-0.3-3.8-0.6-5.7-0.8
				c-1.3-0.2-2.5-0.3-3.8-0.5c-0.9-0.1-1.7-0.3-2.6-0.4c-1.6-0.2-3.1-0.4-4.7-0.6c-2.7-0.4-5.3-0.9-8-1.3c-2.3-0.3-4.6-0.6-6.9-0.9
				c-2.1-0.3-4.2-0.6-6.3-1c-1.8-0.3-3.6-0.8-5.5-1.2c-0.6-0.1-1.2-0.1-1.7-0.2c-2.5-0.5-5.1-1-7.6-1.7c-1.8-0.4-3.6-1-5.4-1.6
				c-0.7-0.2-1.4-0.5-2-0.9C2.8,170.5,2.2,169.9,2,168.9z"/>
			<path d="M148,70.1c-1.1-1-2.3-2-3.2-3.3c-0.6-0.9-0.7-1.8-0.8-2.8c-0.3-2.4,1-3.4,2.8-3.9c0.1,0,0.3,0,0.5-0.1
				c-1.2-1.3-2.3-2.6-3.4-3.8c-0.3-0.3-0.4-0.7-0.6-1c-0.3-0.3-0.5-0.7-0.8-1c-1.5-1.2-2.2-2.8-1.9-4.7c0.2-1.3,1.4-2.3,2.8-2.3
				c1,0,2,0,3,0c0.1-0.4,0.2-0.7,0.2-1c-0.1-1.6,0.8-2.8,1.8-3.9c0.9-1.2,2.1-2.1,3.7-2.5c1.2-0.3,2.4-0.3,3.6-0.1
				c0.5,0.1,0.8,0,1.1-0.3c0.6-0.5,1.2-1.1,1.8-1.6c0.1-0.1,0.3-0.2,0.5-0.3c1.8-0.9,3.6-1.9,5.7-2.1c1.1-0.1,2.2-0.2,3.3-0.1
				c0.5,0,1.2,0.3,1.6,0.7c1.1,1,2.2,0.9,3.5,0.4c1.6-0.6,3.3-1,5.1-0.5c1,0.3,1.8,0.7,2.4,1.5c0.5,0.6,1.1,0.9,1.9,0.9
				c1.5,0.1,3,0.2,4.4,0.2c1.4,0,2.7,0.4,4,0.7c2.7,0.6,5.1,2,7.2,3.7c1,0.8,2.1,1.7,2.6,3c0.3,1,0.6,2,0.8,3c0.1,0.6,0.2,1,0.8,1.3
				c1.9,0.8,3.3,2.1,4.5,3.6c0.2,0.2,0.4,0.5,0.4,0.8c0.2,1,0.9,1.4,1.8,1.7c1.4,0.5,2.8,1,4.2,1.6c1.5,0.6,2.4,1.9,3.2,3.2
				c0.4,0.7,0.5,1.6,0.5,2.4c0,0.4-0.2,0.9-0.6,1.2c-0.5,0.4-0.9,1-1.2,1.5c-0.1,0.1,0,0.5,0.1,0.7c0.4,0.7,0.8,1.4,1.2,2.1
				c0.3,0.6,0.4,1.3,0.2,2c0,0.1-0.1,0.3-0.1,0.4c0,1.4-0.6,2.5-1.8,3.3c1,1.2,1.7,2.6,1.8,4.1c0.1,1.4,0.3,3-0.8,4.2
				c-0.4,0.4-0.5,1.1-0.9,1.4c-0.6,0.5-1.3,1-2,1.4c-0.2,0.1-0.5,0.2-0.8,0.3c0.1,0.2,0.1,0.5,0.2,0.6c0.4,0.8,1,1.5,1.2,2.3
				c0.2,0.8,0.4,1.8,0,2.6c-0.3,0.7-0.8,1.3-1.5,1.6c-0.7,0.3-1.4,0.6-2.1,0.8c-0.7,0.2-1.4,0.3-2.3,0.5c-0.7,0.8-1.5,1.7-2.3,2.6
				c0,0.1-0.1,0.1-0.2,0.2c-1.6,1.2-3.2,2.3-4.7,3.5c-0.9,0.7-1.8,1.4-2.8,2.1c-0.5,0.4-2.3,0.3-2.8-0.1c-0.4-0.3-0.6-1.2-0.2-1.6
				c0.6-0.6,1.2-1.3,1.9-1.8c1.2-0.8,2.3-1.7,3.5-2.4c1.3-0.8,2.1-2,3.3-2.9c0.4-0.3,0.5-0.6,0.6-1.1c0.1-1.3,0.5-1.6,1.8-1.5
				c1.3,0.1,2.5,0.1,3.6-0.7c0.6-0.4,0.7-0.5,0.4-1.1c-0.1-0.3-0.3-0.7-0.4-1c-0.4-1.3-1.1-2.2-2.3-2.8c-0.4-0.2-0.9-0.4-1-0.9
				c-0.2-0.8,0.2-1.5,1-1.6c0.6-0.1,1.2-0.1,1.7,0c0.8,0.1,1.4,0,2-0.5c0.7-0.6,1.3-1.2,1.6-2c0.2-0.4,0.3-0.8,0.3-1.2
				c0-0.6-0.1-1.2-0.1-1.9c0-0.9-0.5-1.4-1.3-1.7c-0.5-0.2-1-0.4-1.4-0.6c-0.7-0.5-0.8-1.5-0.1-2.1c0.3-0.2,0.6-0.6,0.9-0.6
				c0.8-0.1,1.2-0.8,1.7-1.3c0.7-0.7,0.8-2.3,0.2-3.1c-0.2-0.3-0.7-0.4-1-0.5c-0.6-0.3-1.2-0.6-1.7-0.9c-0.7-0.5-0.7-1.3,0-1.8
				c0.5-0.4,0.9-1,1.7-1.2c0.5-0.1,1-0.6,1.3-1.1c0.5-0.7,0.6-1.3,0-1.9c-0.5-0.5-1-1-1.6-1.3c-1.4-0.6-2.9-1-4.3-1.6
				c-1.3-0.5-2.3-1.2-2.5-2.8c-0.1-0.6-0.5-1.2-0.9-1.6c-0.7-0.8-1.6-1.4-2.7-1.7c-0.4-0.1-0.8-0.3-1.2-0.5c-2.2-1.1-2-1.8-1.7-3.5
				c0.2-1.2-0.1-2-1-2.8c-1.4-1.3-3.1-2.3-4.8-3.1c-0.4-0.2-0.8-0.3-1.3-0.3c-2.4-0.3-4.8-0.8-7.2-0.5c-0.2,0-0.5,0-0.8-0.1
				c-1.5-0.6-3.2-1.1-4.4-2.4c-0.6-0.6-1.2-0.6-1.9-0.4c-1,0.3-2,0.8-3.1,1c-1.3,0.2-2.8,0.3-3.9-0.7c-1.3-1.3-2.8-1.1-4.3-0.6
				c-0.2,0.1-0.5,0.2-0.7,0.2c-1.6,0.1-2.8,0.9-4,1.9c-0.6,0.5-1.1,1-1.7,1.5c-0.7,0.6-1.6,0.7-2.5,0.4c-0.7-0.2-1.3-0.4-2-0.3
				c-1.5,0.2-2.6,0.9-3.5,2.1c-0.1,0.1-0.1,0.3-0.2,0.3c-0.9,0.3-0.8,1.3-1.2,2c-0.2,0.3-0.1,0.8,0,1.2c0,0.2,0.1,0.4,0.1,0.6
				c0.1,1.1-0.2,1.4-1.3,1.4c-0.7,0-1.3-0.1-2-0.1c-0.6,0-1.2,0-1.7,0.1c-0.8,0.2-1.1,0.8-1.1,1.6c0.1,0.8,0.3,1.4,1.2,1.8
				c0.3,0.2,0.7,0.5,0.8,0.9c0.9,1.8,2.5,3.1,3.8,4.7c0.7,0.8,1.4,1.7,2.1,2.5c0.2,0.2,0.5,0.5,0.7,0.7c0.2,0.2,0.3,0.3,0.5,0.5
				c0.3,0.4,0.5,0.8,0.2,1.2c-0.3,0.4-0.8,0.6-1.3,0.3c-0.6-0.3-1.3-0.6-1.8-1c-0.7-0.5-2.1-0.6-2.6,0c-0.2,0.2-0.3,0.6-0.3,0.8
				c0,0.6,0,1.2,0.1,1.7c0,0.2,0.1,0.5,0.3,0.7c0.9,1,1.6,2,2.7,2.8c0.8,0.5,0.8,0.8,0.6,1.7c-0.2,1-0.6,2.1-0.5,3.1
				c0.3,2,0,4.1,0.9,6c0.3,0.6,0.1,0.9-0.3,1.1c-0.5,0.2-1.1,0-1.3-0.5c-0.8-1.6-1.2-3.4-1.2-5.1C147.7,73.4,147.9,71.8,148,70.1z"
				/>
			<path d="M65,77.2c0-0.7,0-1.3,0-1.8c-0.1-2.7,0.4-5.4,0.9-8.1c0.7-3.3,2-6.4,3.8-9.3c0.6-0.9,1.3-1.8,2.1-2.7
				c1.8-2.1,3.6-4.2,5.8-5.9c2.4-1.9,5-3.6,7.9-4.8c1.9-0.8,3.8-1.3,5.7-2c1.2-0.4,2.6-0.5,3.9-0.8c1.7-0.4,3.4-0.6,5.1-0.6
				c1.7,0,3.4-0.1,5.1-0.1c1.2,0.1,2.4,0.3,3.6,0.6c3.5,0.8,6.8,2.3,9.7,4.5c1.4,1.1,2.8,2.2,4.3,3.2c1.4,0.9,2.6,2.1,3.7,3.3
				c1,1,2.4,1.8,2.9,3.3c0.1,0.3,0.5,0.4,0.8,0.7c0.1-0.5,0.1-0.9,0.2-1.3c0.5-1.4,2-1.7,3.1-1.2c1.4,0.5,2.4,1.6,2.9,3
				c0.4,1,0.7,2.1,0.6,3.2c0,1-0.1,1.9-0.5,2.8c-0.3,0.6-0.6,1.2-1,1.6c-0.2,0.3-0.7,0.3-1.1,0.5c0.2,0.8,0.1,1.7,0.7,2.5
				c0.1,0.2,0.1,0.5,0.2,0.7c0.2,1.5,0.4,3,0.5,4.4c0.1,1.3-0.1,2.6-0.2,3.8c0,0.2-0.1,0.4-0.1,0.6c0.2,1.2-0.6,1.8-1.5,2.2
				c-0.6,0.3-1.2,0-1.3-0.7c-0.1-0.5-0.2-0.9-0.2-1.4c0-1.7,0.1-3.4-0.1-5.2c-0.1-1.7-0.4-3.4-0.7-5c-0.3-1.6-0.8-3.1-1.4-4.6
				c-0.6-1.5-1.4-3-2.3-4.4c-0.5-0.7-1-1.5-1.5-2.1c-1.3-1.6-2.7-3.1-4.2-4.5c-1.6-1.4-3.2-2.7-4.9-3.9c-2.6-1.9-5.5-3.1-8.5-4.1
				c-1.5-0.5-3.1-0.6-4.8-0.6c-1.7,0-3.4-0.1-5.2,0.1c-1.6,0.2-3.3,0.3-4.9,0.8c-1.4,0.4-2.9,0.7-4.3,1.1c-1.3,0.4-2.6,0.8-3.9,1.4
				c-0.9,0.4-1.8,1-2.6,1.6c-0.8,0.6-1.6,1.2-2.5,1.5c-0.1,0-0.2,0.1-0.3,0.2c-1.1,1.5-2.9,2.2-4,3.7c-1.1,1.5-2.5,2.8-3.7,4.3
				c-0.9,1.1-1.6,2.4-2.4,3.6C70,61.6,70,61.8,70,62c-0.7,2.2-1.3,4.4-2,6.6c0,0.1-0.1,0.2-0.1,0.3c0.4,1.1-0.4,2-0.4,3
				c-0.1,0.9,0,1.7-0.1,2.6c0,0.9-0.1,1.8-0.1,2.7c0,0.2,0,0.4,0,0.5c0.3,1,0.1,2,0.2,3c0,0.9,0,1.8,0.4,2.7
				c0.3,0.8,0.7,1.6,0.6,2.6c0,0.1,0,0.3,0,0.4c0.8,1.4,0.9,3,2,4.3c1,1.2,1.9,2.6,3,3.7c0.2,0.2,0.5,0.4,0.7,0.6
				c0.3,0.3,0.6,0.7,0.3,1.2c-0.3,0.4-0.7,0.5-1.2,0.3c-0.4-0.2-0.8-0.4-1.1-0.7c-1.5-1.5-3-2.9-4-4.8c-0.7-1.3-1.2-2.7-1.8-4.1
				c-0.2-0.4-0.4-0.6-0.8-0.6c-2.7-0.1-5.6-3.4-5.6-6.1c0-1.4,0.3-2.6,1.6-3.4c0.8-0.4,1.6-0.5,2.4-0.3C64.3,76.9,64.6,77,65,77.2z
				 M133.2,62.6c0.3-0.3,0.6-0.5,0.8-0.7c0.8-0.9,0.9-2,0.7-3.1c-0.2-1.1-0.6-2.1-1.5-2.8c-0.6-0.5-1-0.3-1.2,0.4
				c-0.1,0.6-0.3,1.2-0.4,1.8c-0.1,0.3-0.1,0.8,0,1.1C132.1,60.3,132.6,61.4,133.2,62.6z M65.5,84.5c-0.1-1.6-0.2-3-0.4-4.4
				c0-0.2-0.1-0.6-0.2-0.7c-0.5-0.3-1-0.5-1.5-0.7c-0.1,0-0.3,0.2-0.5,0.4c-0.8,0.9-0.1,1.8,0,2.7c0.2,1,1.2,1.8,1.9,2.6
				C64.9,84.5,65.3,84.4,65.5,84.5z"/>
			<path d="M205.4,110.2c2.1-1.9,4.1-3.8,6.2-5.6c0.5-0.5,0.9-1,0.7-1.6c-0.2-1.1,0.2-2,0.6-3c0.3-1,0.8-2,1.3-3.1
				c0.3-0.8,1-1.1,1.8-0.8c0.6,0.3,1.2,0.7,1.3,1.5c0.2,0.9,0.3,1.8,0.4,2.8c0.6-0.4,1.1-0.7,1.6-1.1c1.2-0.8,2.5-1.7,3.7-2.5
				c0.8-0.5,1.7-1,2.5-1.5c0.5-0.3,1-0.4,1.6-0.1c0.5,0.3,0.7,0.6,0.6,1.2c-0.1,1.5-0.9,2.7-1.8,3.8c-0.1,0.2-0.3,0.3-0.6,0.7
				c0.7-0.2,1.3-0.3,1.8-0.5c1.7-0.6,3.5-1,5.3-1.2c0.7-0.1,1.4,0,2.1,0.2c0.9,0.3,1,1.3,0.4,1.9c-0.9,0.8-1.9,1.6-2.9,2.4
				c-0.5,0.4-1.1,0.6-1.6,0.9c-0.1,0.1-0.2,0.2-0.4,0.4c1.1-0.1,1.9-0.2,2.8-0.3c0.9-0.1,1.7-0.1,2.4,0.7c0.7,0.7,0.9,1.6,0.6,2.4
				c-0.3,0.8-1,1.2-1.9,1.2c-0.8,0-1.6,0.1-2.4,0.5c0.7,0.3,1.4,0.6,2,0.8c0.4,0.2,0.8,0.4,0.8,1c0,0.5-0.4,0.8-0.8,1
				c-1.2,0.5-2.4,1.2-3.7,1.4c-1.3,0.2-2.6,0.5-3.8,0.8c-0.8,1.2-1.5,2.2-2.2,3.3c-0.4,0.7-0.8,1.4-1.1,2.1
				c-0.5,1.2-1.7,1.7-2.9,1.2c-0.9-0.4-1.1-1.1-0.5-1.8c0.4-0.5,0.8-0.9,1.1-1.3c1-1.1,1.9-2.2,2.8-3.3c0.3-0.3,0.4-0.8,0.6-1.1
				c0.3-0.5,0.6-0.9,1.4-0.9c1.9-0.1,3.7-0.4,5.6-1.3c-0.3-0.1-0.5-0.2-0.7-0.3c-0.8-0.3-1.6-0.4-2.4-0.8c-0.7-0.3-0.8-0.9-0.2-1.4
				c0.5-0.4,1.2-0.7,1.8-0.9c1.1-0.3,2.3-0.4,3.4-0.7c0.4-0.1,0.7-0.2,1.1-0.3c0-0.1,0-0.2,0-0.3c-0.3-0.1-0.6-0.2-0.9-0.2
				c-1.4,0.1-2.8,0.3-4.2,0.3c-1,0.1-2,0-3,0c-0.5,0-1-0.3-1.1-0.8c-0.1-0.5,0.3-0.8,0.8-1c1.3-0.7,2.5-1.5,3.8-2.2
				c0.3-0.2,0.5-0.3,0.8-0.5c0.5-0.3,1-0.7,1.5-1.2c-0.3,0-0.5,0.1-0.8,0.1c-1.1,0.3-2.3,0.5-3.4,0.8c-0.6,0.2-1.2,0.4-1.7,0.7
				c-1.2,0.5-2.4,1.1-3.6,1.6c-0.4,0.2-0.9,0.2-1.3,0.1c-0.3,0-0.6-0.3-0.7-0.6c-0.1-0.2,0.1-0.7,0.3-0.9c0.4-0.4,1-0.8,1.4-1.2
				c1.3-1.1,2.3-2.4,3.1-3.8c0.1-0.1,0.1-0.3,0.3-0.7c-1.9,1.3-3.6,2.3-5.3,3.5c-0.7,0.5-1.3,1.1-1.9,1.6c-0.4,0.4-1,0.6-1.6,0.4
				c-0.5-0.2-0.8-0.5-0.8-1.1c0-1-0.1-2.1-0.4-3.2c-0.1,0.2-0.3,0.4-0.3,0.6c-0.3,0.9-0.6,1.9-0.8,2.8c-0.1,0.4-0.1,0.9,0,1.4
				c0.1,0.8-0.1,1.3-0.7,1.8c-1.2,0.9-2.3,2-3.5,3c-0.9,0.8-1.8,1.6-2.8,2.3C206.7,111,206.1,111.3,205.4,110.2z"/>
			<path d="M29.4,114.7c-2.1-0.6-4.1-1.3-6.2-1.9c-0.5-0.1-0.9-0.4-1-0.9c-0.2-0.8-0.8-1.3-1.4-1.9c-0.6-0.6-1.3-1.2-1.9-1.7
				c-0.5-0.4-1.1-0.5-1.5,0c-0.4,0.4-0.6,0.9-0.4,1.5c0.2,0.7,0.4,1.3,0.6,2.1c-0.5-0.1-1-0.1-1.5-0.2c-1.1-0.2-2.3-0.4-3.4-0.5
				c-0.8-0.1-1.5-0.2-2.3-0.2c-0.4,0-0.8,0.1-1.1,0.5c-0.2,0.4-0.3,0.6,0,1.1c0.6,1,1.5,1.6,2.5,2.1c0.1,0.1,0.3,0.1,0.6,0.3
				c-0.6,0.1-1,0.2-1.4,0.2c-1.4,0.1-2.8,0.5-4.1,0.9c-0.5,0.2-1,0.5-1.4,0.8c-0.5,0.5-0.3,1.3,0.4,1.5c0.9,0.3,1.9,0.5,2.8,0.7
				c0.5,0.1,0.9,0,1.4,0.1c0.1,0,0.2,0.1,0.4,0.2c-0.8,0.3-1.4,0.5-2.1,0.7c-0.6,0.2-1.2,0.5-1.5,1.3c-0.2,0.7-0.1,1.4,0.4,1.9
				c0.5,0.5,1.1,0.5,1.7,0.2c0.6-0.2,1.1-0.4,1.8-0.4c-0.4,0.4-0.8,0.8-1.1,1.2c-0.2,0.3-0.4,0.5-0.2,0.9c0.2,0.4,0.5,0.4,0.9,0.4
				c1,0,2,0.1,3-0.2c1-0.3,2-0.5,2.9-0.7c0.9,0.6,1.8,1.1,2.6,1.6c0.5,0.3,1,0.7,1.5,1.1c0.7,0.6,1.8,0.6,2.4-0.1
				c0.5-0.6,0.4-1.1-0.2-1.5c-0.4-0.2-0.8-0.4-1.2-0.6c-1-0.5-2.1-0.9-3.1-1.4c-0.3-0.1-0.5-0.4-0.8-0.6c-0.4-0.3-0.7-0.4-1.2-0.2
				c-1.3,0.5-2.7,1-4.3,0.9c0.2-0.2,0.3-0.3,0.4-0.4c0.5-0.4,1-0.8,1.4-1.3c0.4-0.4,0.3-0.9-0.3-1c-0.5-0.1-1.1-0.1-1.6,0
				c-0.9,0.2-1.8,0.4-2.6,0.7c-0.3,0.1-0.6,0.1-0.9,0.1c0-0.1-0.1-0.1-0.1-0.2c0.2-0.1,0.3-0.3,0.5-0.4c1-0.4,2-0.7,3-1.1
				c0.7-0.3,1.4-0.6,2.1-1c0.3-0.2,0.6-0.5,0.5-0.9c-0.1-0.4-0.5-0.4-0.9-0.4c-1.1-0.1-2.2-0.2-3.4-0.3c-0.2,0-0.5-0.1-0.7-0.1
				c-0.5-0.1-0.9-0.1-1.4-0.4c0.2-0.1,0.4-0.1,0.6-0.2c0.9-0.2,1.8-0.4,2.7-0.5c0.5-0.1,1-0.1,1.4-0.1c1,0,2,0,3-0.1
				c0.3,0,0.7-0.2,0.9-0.4c0.2-0.1,0.3-0.4,0.3-0.6c0-0.2-0.3-0.4-0.5-0.5c-0.4-0.2-0.9-0.2-1.4-0.4c-1.2-0.3-2.4-0.9-3.4-1.6
				c-0.1-0.1-0.2-0.2-0.4-0.4c1.7,0.3,3.3,0.4,4.9,0.7c0.6,0.1,1.2,0.3,1.8,0.5c0.4,0.1,0.9,0.1,1.2-0.3c0.3-0.3,0.4-0.6,0.2-1
				c-0.3-0.7-0.6-1.5-0.8-2.4c0.1,0.1,0.3,0.2,0.4,0.3c0.5,0.6,1.1,1.1,1.5,1.7c0.2,0.3,0.4,0.6,0.5,1c0.2,0.6,0.5,0.9,1.1,1
				c1.2,0.2,2.3,0.6,3.4,0.9c0.9,0.2,1.8,0.5,2.7,0.7C28.8,115.7,29.3,115.6,29.4,114.7z"/>
			<path d="M187.6,64.2c0.8-1.6,1.1-1.7,2.5-1.1c0.1,0.1,0.3,0.1,0.4,0.2c1,0.6,1.5,0.9,0.8,2.3c-0.4,0.8-0.4,1.4,0.3,2
				c0.3,0.3,0.6,0.8,0.9,1.1c0.5,0.6,1.1,0.9,1.9,0.6c0.4-0.2,0.9-0.3,1.4-0.4c0.3-0.1,0.8-0.1,1.1,0c1,0.5,1.7,1.3,2,2.3
				c0.2,1-0.6,1.6-1.4,1.4c-0.3-0.1-0.6-0.1-0.8-0.3c-0.6-0.4-1.4-0.4-2-0.2c-1.1,0.3-2,0-2.8-0.6c-1.7-1.2-3.2-2.6-3.9-4.7
				c-0.9-0.2-1.8-0.3-2.7-0.5c-2.6-0.7-5.1-1.7-6.6-4.1c-0.1-0.2-0.3-0.4-0.4-0.7c-0.1-0.2-0.1-0.4-0.2-0.7c-0.8,0-1.6,0-2.4,0
				c-1.9,0-3.8-0.4-5.5-1.2c-2.5-1.2-3.7-3-3.6-6.1c0-0.9,0.1-1.8,0.5-2.7c0.2-0.4,0.4-0.8,1-0.8c0.6,0,1,0.5,0.9,1.2
				c-0.4,1.8-0.1,3.5,0.7,5.1c0.7,1.2,1.8,1.8,3.1,2c1.7,0.3,3.4,0.4,5.1,0.2c0.2-0.4,0.5-0.8,0.8-1.2c0.3-0.5,0.6-0.7,1.2-0.6
				c0.4,0.1,0.7,0,1.1,0.1c1.4,0.3,1.9,1.2,1.5,2.5c-0.2,0.6-0.8,0.4-1.1,0.7c-0.1,2,1.3,2.9,2.9,3.4
				C185.1,63.9,186.3,64,187.6,64.2z"/>
			<path d="M119.3,84.1c-0.4,1.6-1.7,2.6-3.1,2.7c-1.9,0.2-3.7,0-5.5-0.8c-1.5-0.7-3-1.4-4.1-2.7c-0.1-0.2-0.3-0.3-0.6-0.5
				c-0.1,0.3-0.1,0.6-0.1,0.8c-0.1,1.1-0.7,1.8-1.4,2.7c-1.2,1.5-2.7,2.6-4.3,3.5c-2.2,1.3-4.5,2.1-7,2.5c-1.9,0.2-3.8,0.1-5.7-0.3
				c-0.5,1.3-1.2,2.5-2.5,3.4c0.2-0.9,0.4-1.6,0.6-2.3c0.2-0.9,0.5-1.7-0.2-2.5c-0.1-0.1-0.1-0.4-0.1-0.7c0.5-0.1,0.8-0.3,0.8-0.9
				c0-1.6,0.1-3.2-0.5-4.8c-0.5-1.6-1.1-3.1-2.4-4.2c-0.1-0.1-0.2-0.4-0.2-0.4c0.1-0.1,0.4-0.3,0.5-0.3c0.4,0.1,0.9,0.2,1.2,0.5
				c1.1,1.2,2.2,2.3,2.6,4.1c0.2,1.1,0.5,2.3,0.7,3.4c0.2,1-0.1,2.1-0.1,3.2c0.7,0.1,1.4,0.2,2.1,0.2c2.5,0,4.9-0.2,7.1-1.6
				c1.5-0.9,3.1-1.6,4.5-2.6c1.2-0.9,2.2-2,3.3-3c0.3-0.2,0.5-0.5,0.9-0.8c0-0.1-0.1-0.3-0.2-0.4c-0.9-0.8-1.4-1.9-1.7-3.1
				c-0.1-0.6,0-1.3,0.1-1.9c0-0.1,0.3-0.3,0.5-0.3c0.2,0,0.3,0.2,0.5,0.3c0.1,0.1,0.1,0.2,0.1,0.3c0.9,3.3,3.4,5.2,6.2,6.6
				c2.3,1.2,4.9,1.3,7.4,0.1C118.9,84.2,119.1,84.2,119.3,84.1z"/>
			<path d="M169,103.8c0.5,0.5,1,0.9,1.3,1.4c0.3,0.5,0.4,1.1,0.5,1.6c0.1,1.6,0,3.3-0.3,4.9c-0.2,0.9-0.4,1.8-0.6,2.6
				c0,0.1-0.1,0.2-0.1,0.2c0.5,0.8-0.3,1.4-0.4,2.1c0,0.2-0.2,0.5-0.1,0.6c0.5,0.7,0,1.3-0.1,2c-0.1,0.4-0.1,0.7-0.2,1.1
				c-0.3,1.6-0.6,3.3-0.7,4.9c-0.1,1.3-0.5,2.6-0.2,3.9c0,0.2,0,0.3,0,0.5c-0.2,1.8-0.4,3.6-0.5,5.4c-0.1,0.9,0,1.8,0,2.7
				c0,0.3,0,0.5-0.1,0.8c-0.2,0.5-0.6,0.6-0.9,0.2c-0.1-0.1-0.2-0.2-0.2-0.4c-0.6-1.4-1-2.7-1.1-4.2c0-0.9-0.2-1.7-0.2-2.6
				c0-0.1-0.1-0.1-0.1-0.2c0-1.7,0-3.4,0.1-5.1c0.1-1.5,0.3-3,0.4-4.4c0.1-1.1,0.4-2.2,0.5-3.4c0.1-1,0.2-2.1,0.5-3.1
				c0.2-0.6,0.1-1.3,0.3-1.9c0.4-2,0.8-4,1.2-6c0.1-0.6,0.1-1.2,0.3-1.8C168.4,105.1,168.7,104.6,169,103.8z"/>
			<path d="M90.9,51.4c0.2-0.8,0.6-1.2,1.2-1c0.7,0.2,1.4,0.2,1.7,1.2c0.3,1.4,0.9,2.7,1.3,4c0.1,0.4,0,0.8,0,1.2
				c-0.1,0.4-0.2,0.8-0.3,1.1c-0.8,0.3-1.6,0.6-2.5,0.2c-0.5-0.2-0.7,0.2-1,0.5c-0.5,0.6-1.1,0.7-1.8,0.6c-1.1-0.2-1.4-0.5-1.5-1.5
				c-0.1-2.3,0.1-4.5,0.7-6.7c0.1-0.4,0.2-0.9,0.7-0.8c0.4,0,0.9,0.1,1.1,0.6C90.6,50.9,90.7,51.1,90.9,51.4z"/>
			<path d="M188.3,81.8c-1.5-0.2-3-0.4-4.3-1.3c-0.7-0.5-1.4-0.9-2-1.5c-0.7-0.6-1.3-1.3-1.8-2c-0.6-0.8-0.6-1.8-0.4-2.7
				c0.1-0.4,0.3-0.8,0.8-0.8c0.4,0,0.7,0.3,0.9,0.7c0.2,0.5,0.4,1,0.6,1.4c0.4,1,1.2,1.7,2.2,2.2c0.7,0.3,1.3,0.8,2,1.2
				c0.5,0.2,1.1,0.3,1.7,0.4c0.5,0.1,1,0.2,1.5,0.4c0.5,0.2,0.7,0.6,0.6,1.2c-0.1,0.5-0.5,0.8-1,0.8
				C188.6,81.8,188.4,81.8,188.3,81.8z"/>
			<path d="M84.6,49.5c0.2,0.3,0.4,0.6,0.5,1c0.2,0.9,0.3,1.8,0.4,2.8c0.1,1,0.2,2.1,0.3,3.1C86,57.6,86,58.8,86,60
				c0,0.6-0.4,0.9-0.9,1.1c-0.5,0.2-1.1,0-1.5-0.4C82.9,59.9,83,58.9,83,58c0-1.9,0.1-3.9,0.4-5.8c0.1-0.9,0.6-1.8,0.9-2.7
				C84.4,49.5,84.5,49.5,84.6,49.5z"/>
			<path d="M171.8,72.9c-1.9-0.1-3.8-0.4-5.5-1.4c-1.6-1-2.8-2.5-3.1-4.5c-0.1-0.4-0.1-0.9,0.4-1.1c0.5-0.2,0.9,0.1,1.1,0.4
				c0.2,0.3,0.4,0.5,0.5,0.9c0.7,2.2,2.4,3.1,4.5,3.5c0.8,0.1,1.5,0.1,2.3,0.2c0.4,0.1,0.8,0.2,1.2,0.3c0.4,0.2,0.7,0.6,0.5,1
				c-0.1,0.3-0.5,0.5-0.8,0.6C172.6,73,172.2,72.9,171.8,72.9z"/>
			<path d="M80.4,69.8c2.7,2.4,5.5,2.1,8.6,0.2c-0.6,1.5-1.2,2.5-2.8,2.9c-1.6,0.4-3,0.1-4.5-0.4c-0.5-0.2-1-0.6-1.4-1
				C79.9,70.9,80,70.4,80.4,69.8z"/>
			<path d="M173.5,84.7c-1.8-0.1-3.2-0.8-4-2.5c-0.1-0.2-0.2-0.4-0.2-0.6c0-0.4,0-0.9,0.5-1c0.3,0,0.8,0.1,1.1,0.4
				c0.3,0.2,0.6,0.6,0.8,0.9c0.4,0.6,0.9,0.8,1.6,0.8c0.6,0,1.2,0.1,1.7,0.2c0.3,0.1,0.7,0.5,0.7,0.7c0,0.3-0.4,0.7-0.6,0.8
				C174.5,84.6,174,84.6,173.5,84.7z"/>
			<path d="M103.6,65c-0.3,1.7-1,2.2-2.6,2.2c-1.5,0-2.8-0.4-4-1.2c-0.2-0.2-0.5-0.4-0.5-0.7c-0.1-0.3,0-0.6,0-0.9
				c0.3,0,0.7,0,0.9,0.1C99.3,65.8,101.4,65.9,103.6,65z"/>
			<path d="M24.1,70.6c-0.3-0.1-0.5-0.3-0.8-0.2c-1.3,0.1-2.7,0-4,0.7c-1,0.5-2,1.1-3,1.7c-1.7,1.1-2.7,2.8-3.2,4.8
				c-0.2,1.1-0.2,2.3,0.3,3.3c0.1,0.1,0,0.2,0.1,0.3c0.3,0.4,0.2,0.7-0.2,0.9c-0.4,0.2-0.7,0.5-1.1,0.8c-0.8,0.6-1.2,1.4-1.7,2.2
				c-0.1,0.1-0.1,0.3-0.1,0.4c0,0.8-0.1,1.6-0.1,2.4c0,0.3,0.2,0.6,0.3,0.9c0.2,0.3,0.4,0.5,0.5,0.8c0.2,0.6,0.5,1.2,1.2,1.6
				c0.1,0,0.1,0.2,0.1,0.3c-0.2,0.2-0.4,0.5-0.6,0.8c-0.4,0.5-0.6,1.1-0.5,1.8c0,0.1,0.1,0.2,0,0.4c-0.3,1.4,0.2,2.6,0.8,3.7
				c0.3,0.7,0.7,1.3,1.1,1.9c0.5,0.8,1,1.7,2,2.1c0.2,0.1,0.4,0.3,0.6,0.5c0.9,1.1,2.1,1.8,3.3,2.6c0.9,0.6,1.7,1.1,2.6,1.6
				c1.1,0.7,2.4,0.8,3.7,1c0.3,0,0.6-0.1,0.9-0.3c0.7-0.3,0.9-0.9,0.6-1.6c-0.1-0.3-0.3-0.5-0.6-0.5c-0.6-0.1-1.1-0.2-1.6-0.4
				c-1.7-0.5-3.1-1.5-4.5-2.6c-0.7-0.6-1.4-1.1-2.1-1.6c-0.8-0.5-1.5-1.2-2-2c-0.7-1-1.5-2-1.8-3.2c-0.2-0.9-0.2-1.9,0-2.8
				c0.1-0.2,0.3-0.4,0.5-0.6c1.1-1.1,1.3-1.9-0.2-3.1c-0.6-0.5-1.1-1.1-1.4-1.8c-0.6-1.3,0.1-2.7,1.2-3.3c0.2-0.1,0.5-0.1,0.8-0.1
				c0.9,0.1,1.5-0.4,2.1-0.9c0.4-0.4,0.4-0.8,0.2-1.2c-0.3-0.5-0.6-1-0.9-1.4c-0.6-0.7-0.8-1.4-0.7-2.3c0-0.2,0.1-0.4,0-0.5
				c-0.1-1.5,0.7-2.6,1.9-3.4c0.7-0.5,1.5-0.9,2.4-1.1c0.8-0.2,1.4,0,2.1,0.1c0.1,0.1,0.1,0.1,0.1,0.2c0.3,1.3,1.1,1.6,2.2,1
				c0.6-0.3,1-0.8,1.2-1.4c0.3-0.9,0.6-1.8,1.1-2.6c0.4-0.7,1-1.3,1.6-2c1.2-1.3,2.6-2.5,4.3-3.2c0.6-0.3,1.2-0.5,1.8-0.6
				c1.3-0.3,2.7-0.5,4.1-0.7c0.5-0.1,1.1-0.1,1.7-0.1c0.4,0,0.8,0.1,1.1,0.1c1.1,0.2,2.2,0.3,3.2,0.5c0.5,0.1,0.9,0.3,1.4,0.4
				c0.3,0.1,0.6,0.2,0.8,0.3c1.1,0.2,2.1,0.8,2.9,1.5c0.4,0.3,0.9,0.6,1.3,0.9c0.3,0.3,0.7,0.6,1,0.9c0.4,0.5,1,0.7,1.6,0.6
				c0.7-0.1,0.9-0.6,0.8-1.2c-0.2-0.8-0.6-1.4-1.2-1.9c-0.3-0.3-0.6-0.7-0.9-1c-0.7-0.5-1.4-0.9-2.1-1.3c-0.6-0.3-1.2-0.7-1.8-1
				c-0.9-0.4-1.7-0.7-2.6-0.9c-0.7-0.2-1.5-0.3-2.3-0.3c-1-0.1-2,0-3-0.2c-0.9-0.1-1.8,0-2.6,0.2c-0.7,0.1-1.4,0.2-2.1,0.4
				c-1,0.3-2.1,0.6-3.1,1c-1,0.4-1.9,0.9-2.8,1.4c-1.6,1-3,2.2-4.2,3.6c-0.4,0.4-0.8,0.9-1.2,1.3C24.7,69.7,24.4,70.1,24.1,70.6z"/>
			<path d="M41.8,107.6c2-0.1,4-0.2,6-0.8c1.9-0.5,3.6-1.3,5.2-2.4c1.9-1.2,3.6-2.7,4.8-4.6c0.5-0.8,1.1-1.6,1.4-2.5
				c0.4-1.5,1-3,0.8-4.6c-0.1-1,0-2.1-0.2-3.2c-0.2-1.1-0.5-2.1-0.8-3.2c-0.4-1.3-0.8-2.7-1.5-3.9c-0.6-1.2-1.4-2.2-2.2-3.3
				c-0.5-0.6-1-1.2-1.6-1.8c-0.9-0.8-1.8-1.7-2.7-2.4c-1.6-1.2-3.4-1.9-5.4-2.2c-0.9-0.1-2,0-2.9,0.2c-0.4,0.1-0.8,0.4-1.2,0.7
				c-0.4,0.4-0.2,0.9,0.4,1c0.3,0,0.5,0,0.8,0c0.3,0,0.6-0.1,1-0.1c1.1-0.2,2.1,0.3,3.1,0.7c0.7,0.3,1.5,0.5,2.1,1.1
				c0.1,0.1,0.3,0.1,0.5,0.2c0.3,0.1,0.7,0.3,0.9,0.5c1.2,1,2.2,2.3,3.2,3.5c0.2,0.3,0.4,0.7,0.6,1c0.5,0.7,1.2,1.4,1.5,2.2
				c0.1,0.3,0.3,0.5,0.4,0.8c0.1,0.1,0.2,0.3,0.2,0.4c-0.2,1,0.7,1.8,0.8,2.7c0.3,1.4,0.8,2.7,0.7,4.1c-0.1,0.7,0,1.5,0,2.2
				c0,0.9-0.2,1.7-0.5,2.5c-0.6,1.3-1.2,2.6-2.2,3.7c-0.8,0.8-1.6,1.6-2.5,2.3c-0.7,0.5-1.5,1-2.3,1.4c-1.2,0.7-2.6,1.1-3.9,1.3
				c-1,0.2-2.1,0.2-3.1,0.2c-0.9,0-1.8,0.1-2.7-0.1c-1.3-0.2-2.5-0.6-3.7-1.1c-0.7-0.3-1.4-0.7-2-1.2c-0.5-0.4-1-0.8-1.5-1.3
				c-0.6-0.5-1.2-1-1.7-1.5c-0.2-0.2-0.4-0.5-0.7-0.7c-0.7-0.9-1.4-1.7-2.1-2.6c-0.9-1.1-1.8-2.3-2.4-3.7c-0.6-1.2-0.6-2.4-0.8-3.7
				c-0.1-0.5,0-1.1,0-1.6C25.4,87,26,86,26.7,85c1.1-1.6,2.2-3.1,3.3-4.6c0.7-0.9,1.6-1.5,2.6-1.9c0.8-0.4,1.7-0.6,2.6-0.9
				c0.3-0.1,0.7-0.3,0.9-0.5c0.5-0.4,0.7-0.7,0.4-1.2c-0.2-0.4-0.7-0.7-1.1-0.6c-0.7,0.2-1.5,0.3-2.2,0.6c-1.6,0.7-3.2,1.5-4.5,2.6
				c-0.6,0.5-1.2,1.2-1.6,1.9c-0.9,1.3-1.8,2.7-2.9,3.8c-0.3,0.3-0.5,0.7-0.7,1.1c-0.2,0.4-0.4,0.8-0.6,1.2
				c-0.1,0.2-0.1,0.3-0.1,0.5c-0.1,0.7-0.2,1.3-0.2,2c0,0.1-0.1,0.3,0,0.4c0.4,0.8,0.4,1.7,0.2,2.6c0,0.2,0.1,0.5,0.2,0.8
				c0.4,1.1,0.9,2.2,1.4,3.2c0.3,0.6,0.6,1.1,1.2,1.4c0.2,0.1,0.3,0.3,0.4,0.5c0.4,0.5,0.8,1,1.2,1.5c0.1,0.2,0.3,0.3,0.4,0.5
				c0.3,0.8,1,1.2,1.5,1.8c0.6,0.6,1.3,1.2,1.9,1.8c0.3,0.4,0.6,0.7,1.1,0.8c0.2,0,0.3,0.2,0.4,0.3c0.7,0.9,1.6,1.4,2.7,1.6
				c0.3,0.1,0.6,0.2,0.8,0.3c1.6,0.9,3.3,1.1,5.1,1.1C41.5,107.6,41.6,107.6,41.8,107.6z"/>
			<path d="M53.5,92.6c-0.4,0-0.7,0-0.9,0.1c-1,0.3-2,0.1-3-0.1c-0.6-0.1-1.2-0.7-1.3-1.2c-0.1-0.7-0.3-0.9-0.8-0.9
				c-0.6,0-1.1,0.3-1.2,0.9c-0.2,0.9,0,1.5,0.9,2c0.2,0.1,0.4,0.3,0.7,0.5c-0.5,0.6-1.1,1.1-1.7,1.6c-1.1,0.8-2.2,1.7-3.3,2.5
				c-0.2,0.2-0.4,0.3-0.6,0.5c-0.6,0.6-0.7,0.8-0.5,1.2c0.2,0.4,1.1,0.6,1.6,0.3c0.3-0.2,0.5-0.4,0.8-0.6c1.6-1.2,3.1-2.3,4.3-3.9
				c0.3-0.3,0.5-0.7,0.6-1c1.1-0.2,2.1-0.3,3-0.5C52.8,93.7,53.4,93.4,53.5,92.6z"/>
			<path d="M43.9,86.4c-0.2-0.3-0.3-0.9-0.9-0.8c-0.7,0-1.1,0.5-1.4,1c-0.1,0.1,0,0.4,0.1,0.6c0.5,0.6,1.1,1.1,1.9,1.2
				c1.7,0.1,3.3-0.2,4.7-1.2c1.1-0.8,1.9-1.8,2.4-3c0.1-0.3,0.1-0.6-0.2-0.8c-0.2-0.1-0.5,0-0.7,0.2c-0.5,0.4-0.9,0.9-1.3,1.3
				c-0.8,0.8-1.7,1.3-2.8,1.6C45.2,86.6,44.6,86.4,43.9,86.4z"/>
			<path d="M34.2,94.5c1.1-0.1,2.1-0.5,2.9-1.1c0.6-0.4,1.1-0.9,1.6-1.4c0.7-0.7,0.8-1.6,0.5-2.3c-0.3-0.5-0.7-0.6-1-0.1
				C38.1,89.8,38,89.9,38,90c-0.4,1.5-1.7,2-3,2.5c-0.4,0.1-0.7,0.2-1.1,0.3c-0.2,0.1-0.4,0.2-0.6,0.4c-0.4,0.5-0.3,1,0.3,1.2
				C33.9,94.5,34.1,94.5,34.2,94.5z"/>
		</g>
	</g>
</g>
</svg>
